^C:\USERS\SATRI\DOCUMENTS\OPENGLTUTORIAL\COMMON\CONTROLS.CPP|C:\USERS\SATRI\DOCUMENTS\OPENGLTUTORIAL\COMMON\SHADER.CPP|C:\USERS\SATRI\DOCUMENTS\OPENGLTUTORIAL\COMMON\TEXTURE.CPP|C:\USERS\SATRI\DOCUMENTS\OPENGLTUTORIAL\TUTORIAL18_BILLBOARDS_AND_PARTICLES\TUTORIAL18_PARTICLES.CPP
C:\USERS\SATRI\DOCUMENTS\OPENGLTUTORIAL\VS2017\TUTORIAL18_PARTICLES.DIR\DEBUG\TEXTURE.OBJ
C:\USERS\SATRI\DOCUMENTS\OPENGLTUTORIAL\VS2017\TUTORIAL18_PARTICLES.DIR\DEBUG\TUTORIAL18_PARTICLES.OBJ
C:\USERS\SATRI\DOCUMENTS\OPENGLTUTORIAL\VS2017\TUTORIAL18_PARTICLES.DIR\DEBUG\CONTROLS.OBJ
C:\USERS\SATRI\DOCUMENTS\OPENGLTUTORIAL\VS2017\TUTORIAL18_PARTICLES.DIR\DEBUG\SHADER.OBJ
^C:\USERS\SATRI\DOCUMENTS\OPENGLTUTORIAL\TUTORIAL18_BILLBOARDS_AND_PARTICLES\TUTORIAL18_PARTICLES.CPP
C:\USERS\SATRI\DOCUMENTS\OPENGLTUTORIAL\VS2017\TUTORIAL18_PARTICLES.DIR\DEBUG\VC141.PDB
^C:\USERS\SATRI\DOCUMENTS\OPENGLTUTORIAL\COMMON\SHADER.CPP
C:\USERS\SATRI\DOCUMENTS\OPENGLTUTORIAL\VS2017\TUTORIAL18_PARTICLES.DIR\DEBUG\VC141.PDB
^C:\USERS\SATRI\DOCUMENTS\OPENGLTUTORIAL\COMMON\TEXTURE.CPP
C:\USERS\SATRI\DOCUMENTS\OPENGLTUTORIAL\VS2017\TUTORIAL18_PARTICLES.DIR\DEBUG\VC141.PDB
^C:\USERS\SATRI\DOCUMENTS\OPENGLTUTORIAL\COMMON\CONTROLS.CPP
C:\USERS\SATRI\DOCUMENTS\OPENGLTUTORIAL\VS2017\TUTORIAL18_PARTICLES.DIR\DEBUG\VC141.PDB
