^C:\USERS\SATRI\DOCUMENTS\OPENGLTUTORIAL\COMMON\SHADER.CPP
/c /I"C:\USERS\SATRI\DOCUMENTS\OPENGLTUTORIAL\EXTERNAL\ANTTWEAKBAR-1.16\INCLUDE" /I"C:\USERS\SATRI\DOCUMENTS\OPENGLTUTORIAL\EXTERNAL\GLFW-3.1.2\INCLUDE\GLFW" /I"C:\USERS\SATRI\DOCUMENTS\OPENGLTUTORIAL\EXTERNAL\GLM-0.9.7.1" /I"C:\USERS\SATRI\DOCUMENTS\OPENGLTUTORIAL\EXTERNAL\GLEW-1.13.0\INCLUDE" /I"C:\USERS\SATRI\DOCUMENTS\OPENGLTUTORIAL\EXTERNAL\ASSIMP-3.0.1270\INCLUDE" /I"C:\USERS\SATRI\DOCUMENTS\OPENGLTUTORIAL\EXTERNAL\BULLET-2.81-REV2613\SRC" /IC:\USERS\SATRI\DOCUMENTS\OPENGLTUTORIAL\. /Zi /nologo /W3 /WX- /diagnostics:classic /Od /Ob0 /D WIN32 /D _WINDOWS /D _DEBUG /D TW_STATIC /D TW_NO_LIB_PRAGMA /D TW_NO_DIRECT3D /D GLEW_STATIC /D _CRT_SECURE_NO_WARNINGS /D "CMAKE_INTDIR=\"Debug\"" /D _MBCS /Gm- /EHsc /RTC1 /MDd /GS /fp:precise /Zc:wchar_t /Zc:forScope /Zc:inline /GR /Fo"TUTORIAL05_TEXTURED_CUBE.DIR\DEBUG\\" /Fd"TUTORIAL05_TEXTURED_CUBE.DIR\DEBUG\VC141.PDB" /Gd /TP C:\USERS\SATRI\DOCUMENTS\OPENGLTUTORIAL\COMMON\SHADER.CPP
^C:\USERS\SATRI\DOCUMENTS\OPENGLTUTORIAL\COMMON\TEXTURE.CPP
/c /I"C:\USERS\SATRI\DOCUMENTS\OPENGLTUTORIAL\EXTERNAL\ANTTWEAKBAR-1.16\INCLUDE" /I"C:\USERS\SATRI\DOCUMENTS\OPENGLTUTORIAL\EXTERNAL\GLFW-3.1.2\INCLUDE\GLFW" /I"C:\USERS\SATRI\DOCUMENTS\OPENGLTUTORIAL\EXTERNAL\GLM-0.9.7.1" /I"C:\USERS\SATRI\DOCUMENTS\OPENGLTUTORIAL\EXTERNAL\GLEW-1.13.0\INCLUDE" /I"C:\USERS\SATRI\DOCUMENTS\OPENGLTUTORIAL\EXTERNAL\ASSIMP-3.0.1270\INCLUDE" /I"C:\USERS\SATRI\DOCUMENTS\OPENGLTUTORIAL\EXTERNAL\BULLET-2.81-REV2613\SRC" /IC:\USERS\SATRI\DOCUMENTS\OPENGLTUTORIAL\. /Zi /nologo /W3 /WX- /diagnostics:classic /Od /Ob0 /D WIN32 /D _WINDOWS /D _DEBUG /D TW_STATIC /D TW_NO_LIB_PRAGMA /D TW_NO_DIRECT3D /D GLEW_STATIC /D _CRT_SECURE_NO_WARNINGS /D "CMAKE_INTDIR=\"Debug\"" /D _MBCS /Gm- /EHsc /RTC1 /MDd /GS /fp:precise /Zc:wchar_t /Zc:forScope /Zc:inline /GR /Fo"TUTORIAL05_TEXTURED_CUBE.DIR\DEBUG\\" /Fd"TUTORIAL05_TEXTURED_CUBE.DIR\DEBUG\VC141.PDB" /Gd /TP C:\USERS\SATRI\DOCUMENTS\OPENGLTUTORIAL\COMMON\TEXTURE.CPP
^C:\USERS\SATRI\DOCUMENTS\OPENGLTUTORIAL\TUTORIAL05_TEXTURED_CUBE\TUTORIAL05.CPP
/c /I"C:\USERS\SATRI\DOCUMENTS\OPENGLTUTORIAL\EXTERNAL\ANTTWEAKBAR-1.16\INCLUDE" /I"C:\USERS\SATRI\DOCUMENTS\OPENGLTUTORIAL\EXTERNAL\GLFW-3.1.2\INCLUDE\GLFW" /I"C:\USERS\SATRI\DOCUMENTS\OPENGLTUTORIAL\EXTERNAL\GLM-0.9.7.1" /I"C:\USERS\SATRI\DOCUMENTS\OPENGLTUTORIAL\EXTERNAL\GLEW-1.13.0\INCLUDE" /I"C:\USERS\SATRI\DOCUMENTS\OPENGLTUTORIAL\EXTERNAL\ASSIMP-3.0.1270\INCLUDE" /I"C:\USERS\SATRI\DOCUMENTS\OPENGLTUTORIAL\EXTERNAL\BULLET-2.81-REV2613\SRC" /IC:\USERS\SATRI\DOCUMENTS\OPENGLTUTORIAL\. /Zi /nologo /W3 /WX- /diagnostics:classic /Od /Ob0 /D WIN32 /D _WINDOWS /D _DEBUG /D TW_STATIC /D TW_NO_LIB_PRAGMA /D TW_NO_DIRECT3D /D GLEW_STATIC /D _CRT_SECURE_NO_WARNINGS /D "CMAKE_INTDIR=\"Debug\"" /D _MBCS /Gm- /EHsc /RTC1 /MDd /GS /fp:precise /Zc:wchar_t /Zc:forScope /Zc:inline /GR /Fo"TUTORIAL05_TEXTURED_CUBE.DIR\DEBUG\\" /Fd"TUTORIAL05_TEXTURED_CUBE.DIR\DEBUG\VC141.PDB" /Gd /TP C:\USERS\SATRI\DOCUMENTS\OPENGLTUTORIAL\TUTORIAL05_TEXTURED_CUBE\TUTORIAL05.CPP
