^C:\USERS\SATRI\DOCUMENTS\OPENGLTUTORIAL\COMMON\SHADER.CPP|C:\USERS\SATRI\DOCUMENTS\OPENGLTUTORIAL\COMMON\TEXTURE.CPP|C:\USERS\SATRI\DOCUMENTS\OPENGLTUTORIAL\TUTORIAL05_TEXTURED_CUBE\TUTORIAL05.CPP
C:\USERS\SATRI\DOCUMENTS\OPENGLTUTORIAL\VS2017\TUTORIAL05_TEXTURED_CUBE.DIR\DEBUG\TEXTURE.OBJ
C:\USERS\SATRI\DOCUMENTS\OPENGLTUTORIAL\VS2017\TUTORIAL05_TEXTURED_CUBE.DIR\DEBUG\TUTORIAL05.OBJ
C:\USERS\SATRI\DOCUMENTS\OPENGLTUTORIAL\VS2017\TUTORIAL05_TEXTURED_CUBE.DIR\DEBUG\SHADER.OBJ
^C:\USERS\SATRI\DOCUMENTS\OPENGLTUTORIAL\COMMON\SHADER.CPP
C:\USERS\SATRI\DOCUMENTS\OPENGLTUTORIAL\VS2017\TUTORIAL05_TEXTURED_CUBE.DIR\DEBUG\VC141.PDB
^C:\USERS\SATRI\DOCUMENTS\OPENGLTUTORIAL\COMMON\TEXTURE.CPP|C:\USERS\SATRI\DOCUMENTS\OPENGLTUTORIAL\TUTORIAL05_TEXTURED_CUBE\TUTORIAL05.CPP
C:\USERS\SATRI\DOCUMENTS\OPENGLTUTORIAL\VS2017\TUTORIAL05_TEXTURED_CUBE.DIR\DEBUG\TEXTURE.OBJ
C:\USERS\SATRI\DOCUMENTS\OPENGLTUTORIAL\VS2017\TUTORIAL05_TEXTURED_CUBE.DIR\DEBUG\TUTORIAL05.OBJ
^C:\USERS\SATRI\DOCUMENTS\OPENGLTUTORIAL\COMMON\TEXTURE.CPP
C:\USERS\SATRI\DOCUMENTS\OPENGLTUTORIAL\VS2017\TUTORIAL05_TEXTURED_CUBE.DIR\DEBUG\VC141.PDB
^C:\USERS\SATRI\DOCUMENTS\OPENGLTUTORIAL\TUTORIAL05_TEXTURED_CUBE\TUTORIAL05.CPP
C:\USERS\SATRI\DOCUMENTS\OPENGLTUTORIAL\VS2017\TUTORIAL05_TEXTURED_CUBE.DIR\DEBUG\VC141.PDB
