^C:\USERS\SATRI\DOCUMENTS\OPENGLTUTORIAL\CMAKELISTS.TXT
C:\USERS\SATRI\DOCUMENTS\OPENGLTUTORIAL\VS2017\CMAKEFILES\3.7.2\CMAKESYSTEM.CMAKE
C:\PROGRAM FILES\CMAKE\SHARE\CMAKE-3.7\MODULES\CMAKESYSTEMSPECIFICINITIALIZE.CMAKE
C:\USERS\SATRI\DOCUMENTS\OPENGLTUTORIAL\VS2017\CMAKEFILES\3.7.2\CMAKECCOMPILER.CMAKE
C:\USERS\SATRI\DOCUMENTS\OPENGLTUTORIAL\VS2017\CMAKEFILES\3.7.2\CMAKECXXCOMPILER.CMAKE
C:\PROGRAM FILES\CMAKE\SHARE\CMAKE-3.7\MODULES\CMAKESYSTEMSPECIFICINFORMATION.CMAKE
C:\PROGRAM FILES\CMAKE\SHARE\CMAKE-3.7\MODULES\CMAKEGENERICSYSTEM.CMAKE
C:\PROGRAM FILES\CMAKE\SHARE\CMAKE-3.7\MODULES\PLATFORM\WINDOWS.CMAKE
C:\PROGRAM FILES\CMAKE\SHARE\CMAKE-3.7\MODULES\PLATFORM\WINDOWSPATHS.CMAKE
C:\PROGRAM FILES\CMAKE\SHARE\CMAKE-3.7\MODULES\CMAKECINFORMATION.CMAKE
C:\PROGRAM FILES\CMAKE\SHARE\CMAKE-3.7\MODULES\CMAKELANGUAGEINFORMATION.CMAKE
C:\PROGRAM FILES\CMAKE\SHARE\CMAKE-3.7\MODULES\PLATFORM\WINDOWS-MSVC-C.CMAKE
C:\PROGRAM FILES\CMAKE\SHARE\CMAKE-3.7\MODULES\PLATFORM\WINDOWS-MSVC.CMAKE
C:\USERS\SATRI\DOCUMENTS\OPENGLTUTORIAL\VS2017\CMAKEFILES\3.7.2\CMAKERCCOMPILER.CMAKE
C:\PROGRAM FILES\CMAKE\SHARE\CMAKE-3.7\MODULES\CMAKERCINFORMATION.CMAKE
C:\PROGRAM FILES\CMAKE\SHARE\CMAKE-3.7\MODULES\CMAKECOMMONLANGUAGEINCLUDE.CMAKE
C:\PROGRAM FILES\CMAKE\SHARE\CMAKE-3.7\MODULES\CMAKECXXINFORMATION.CMAKE
C:\PROGRAM FILES\CMAKE\SHARE\CMAKE-3.7\MODULES\COMPILER\MSVC-CXX.CMAKE
C:\PROGRAM FILES\CMAKE\SHARE\CMAKE-3.7\MODULES\PLATFORM\WINDOWS-MSVC-CXX.CMAKE
C:\PROGRAM FILES\CMAKE\SHARE\CMAKE-3.7\MODULES\FINDOPENGL.CMAKE
C:\PROGRAM FILES\CMAKE\SHARE\CMAKE-3.7\MODULES\FINDPACKAGEHANDLESTANDARDARGS.CMAKE
C:\PROGRAM FILES\CMAKE\SHARE\CMAKE-3.7\MODULES\FINDPACKAGEMESSAGE.CMAKE
C:\PROGRAM FILES\CMAKE\SHARE\CMAKE-3.7\MODULES\CMAKEPARSEARGUMENTS.CMAKE
C:\USERS\SATRI\DOCUMENTS\OPENGLTUTORIAL\EXTERNAL\RPAVLIK-CMAKE-MODULES-FE2273\CREATELAUNCHERS.CMAKE
C:\USERS\SATRI\DOCUMENTS\OPENGLTUTORIAL\EXTERNAL\RPAVLIK-CMAKE-MODULES-FE2273\CLEANDIRECTORYLIST.CMAKE
C:\USERS\SATRI\DOCUMENTS\OPENGLTUTORIAL\EXTERNAL\RPAVLIK-CMAKE-MODULES-FE2273\MSVCMULTIPLEPROCESSCOMPILE.CMAKE
C:\USERS\SATRI\DOCUMENTS\OPENGLTUTORIAL\EXTERNAL\RPAVLIK-CMAKE-MODULES-FE2273\LISTCOMBINATIONS.CMAKE
C:\USERS\SATRI\DOCUMENTS\OPENGLTUTORIAL\EXTERNAL\RPAVLIK-CMAKE-MODULES-FE2273\LAUNCHER-TEMPLATES\VCXPROJ.USER.IN
C:\USERS\SATRI\DOCUMENTS\OPENGLTUTORIAL\EXTERNAL\RPAVLIK-CMAKE-MODULES-FE2273\LAUNCHER-TEMPLATES\TARGETLAUNCHER.CMD.IN
