^C:\Users\satri\Documents\OpenGLTutorial\VS2017\tutorial09_AssImp.vcxproj
C:\Users\satri\Documents\OpenGLTutorial\VS2017\Debug\tutorial09_AssImp.lib
C:\Users\satri\Documents\OpenGLTutorial\VS2017\Debug\tutorial09_AssImp.exp
