^C:\USERS\SATRI\DOCUMENTS\OPENGLTUTORIAL\TUTORIAL01_FIRST_WINDOW\TUTORIAL01.CPP
C:\USERS\SATRI\DOCUMENTS\OPENGLTUTORIAL\VS2017\TUTORIAL01_FIRST_WINDOW.DIR\DEBUG\VC141.PDB
C:\USERS\SATRI\DOCUMENTS\OPENGLTUTORIAL\VS2017\TUTORIAL01_FIRST_WINDOW.DIR\DEBUG\TUTORIAL01.OBJ
