^C:\USERS\SATRI\DOCUMENTS\OPENGLTUTORIAL\COMMON\VBOINDEXER.CPP
C:\PROGRAM FILES (X86)\MICROSOFT VISUAL STUDIO\2017\COMMUNITY\VC\TOOLS\MSVC\14.10.24911\INCLUDE\VECTOR
C:\PROGRAM FILES (X86)\MICROSOFT VISUAL STUDIO\2017\COMMUNITY\VC\TOOLS\MSVC\14.10.24911\INCLUDE\XMEMORY
C:\PROGRAM FILES (X86)\MICROSOFT VISUAL STUDIO\2017\COMMUNITY\VC\TOOLS\MSVC\14.10.24911\INCLUDE\XMEMORY0
C:\PROGRAM FILES (X86)\MICROSOFT VISUAL STUDIO\2017\COMMUNITY\VC\TOOLS\MSVC\14.10.24911\INCLUDE\CSTDINT
C:\PROGRAM FILES (X86)\MICROSOFT VISUAL STUDIO\2017\COMMUNITY\VC\TOOLS\MSVC\14.10.24911\INCLUDE\YVALS.H
C:\PROGRAM FILES (X86)\MICROSOFT VISUAL STUDIO\2017\COMMUNITY\VC\TOOLS\MSVC\14.10.24911\INCLUDE\XKEYCHECK.H
C:\PROGRAM FILES (X86)\MICROSOFT VISUAL STUDIO\2017\COMMUNITY\VC\TOOLS\MSVC\14.10.24911\INCLUDE\CRTDEFS.H
C:\PROGRAM FILES (X86)\MICROSOFT VISUAL STUDIO\2017\COMMUNITY\VC\TOOLS\MSVC\14.10.24911\INCLUDE\VCRUNTIME.H
C:\PROGRAM FILES (X86)\MICROSOFT VISUAL STUDIO\2017\COMMUNITY\VC\TOOLS\MSVC\14.10.24911\INCLUDE\SAL.H
C:\PROGRAM FILES (X86)\MICROSOFT VISUAL STUDIO\2017\COMMUNITY\VC\TOOLS\MSVC\14.10.24911\INCLUDE\CONCURRENCYSAL.H
C:\PROGRAM FILES (X86)\MICROSOFT VISUAL STUDIO\2017\COMMUNITY\VC\TOOLS\MSVC\14.10.24911\INCLUDE\VADEFS.H
C:\PROGRAM FILES (X86)\WINDOWS KITS\10\INCLUDE\10.0.14393.0\UCRT\CORECRT.H
C:\PROGRAM FILES (X86)\MICROSOFT VISUAL STUDIO\2017\COMMUNITY\VC\TOOLS\MSVC\14.10.24911\INCLUDE\USE_ANSI.H
C:\PROGRAM FILES (X86)\MICROSOFT VISUAL STUDIO\2017\COMMUNITY\VC\TOOLS\MSVC\14.10.24911\INCLUDE\STDINT.H
C:\PROGRAM FILES (X86)\MICROSOFT VISUAL STUDIO\2017\COMMUNITY\VC\TOOLS\MSVC\14.10.24911\INCLUDE\CSTDLIB
C:\PROGRAM FILES (X86)\WINDOWS KITS\10\INCLUDE\10.0.14393.0\UCRT\STDLIB.H
C:\PROGRAM FILES (X86)\WINDOWS KITS\10\INCLUDE\10.0.14393.0\UCRT\CORECRT_MALLOC.H
C:\PROGRAM FILES (X86)\WINDOWS KITS\10\INCLUDE\10.0.14393.0\UCRT\CORECRT_SEARCH.H
C:\PROGRAM FILES (X86)\WINDOWS KITS\10\INCLUDE\10.0.14393.0\UCRT\STDDEF.H
C:\PROGRAM FILES (X86)\WINDOWS KITS\10\INCLUDE\10.0.14393.0\UCRT\CORECRT_WSTDLIB.H
C:\PROGRAM FILES (X86)\MICROSOFT VISUAL STUDIO\2017\COMMUNITY\VC\TOOLS\MSVC\14.10.24911\INCLUDE\LIMITS.H
C:\PROGRAM FILES (X86)\WINDOWS KITS\10\INCLUDE\10.0.14393.0\UCRT\MATH.H
C:\PROGRAM FILES (X86)\MICROSOFT VISUAL STUDIO\2017\COMMUNITY\VC\TOOLS\MSVC\14.10.24911\INCLUDE\LIMITS
C:\PROGRAM FILES (X86)\MICROSOFT VISUAL STUDIO\2017\COMMUNITY\VC\TOOLS\MSVC\14.10.24911\INCLUDE\YMATH.H
C:\PROGRAM FILES (X86)\MICROSOFT VISUAL STUDIO\2017\COMMUNITY\VC\TOOLS\MSVC\14.10.24911\INCLUDE\CFLOAT
C:\PROGRAM FILES (X86)\WINDOWS KITS\10\INCLUDE\10.0.14393.0\UCRT\FLOAT.H
C:\PROGRAM FILES (X86)\MICROSOFT VISUAL STUDIO\2017\COMMUNITY\VC\TOOLS\MSVC\14.10.24911\INCLUDE\CLIMITS
C:\PROGRAM FILES (X86)\MICROSOFT VISUAL STUDIO\2017\COMMUNITY\VC\TOOLS\MSVC\14.10.24911\INCLUDE\CMATH
C:\PROGRAM FILES (X86)\MICROSOFT VISUAL STUDIO\2017\COMMUNITY\VC\TOOLS\MSVC\14.10.24911\INCLUDE\XTGMATH.H
C:\PROGRAM FILES (X86)\MICROSOFT VISUAL STUDIO\2017\COMMUNITY\VC\TOOLS\MSVC\14.10.24911\INCLUDE\XTR1COMMON
C:\PROGRAM FILES (X86)\MICROSOFT VISUAL STUDIO\2017\COMMUNITY\VC\TOOLS\MSVC\14.10.24911\INCLUDE\CWCHAR
C:\PROGRAM FILES (X86)\WINDOWS KITS\10\INCLUDE\10.0.14393.0\UCRT\WCHAR.H
C:\PROGRAM FILES (X86)\WINDOWS KITS\10\INCLUDE\10.0.14393.0\UCRT\CORECRT_MEMCPY_S.H
C:\PROGRAM FILES (X86)\WINDOWS KITS\10\INCLUDE\10.0.14393.0\UCRT\ERRNO.H
C:\PROGRAM FILES (X86)\MICROSOFT VISUAL STUDIO\2017\COMMUNITY\VC\TOOLS\MSVC\14.10.24911\INCLUDE\VCRUNTIME_STRING.H
C:\PROGRAM FILES (X86)\WINDOWS KITS\10\INCLUDE\10.0.14393.0\UCRT\CORECRT_WCONIO.H
C:\PROGRAM FILES (X86)\WINDOWS KITS\10\INCLUDE\10.0.14393.0\UCRT\CORECRT_STDIO_CONFIG.H
C:\PROGRAM FILES (X86)\WINDOWS KITS\10\INCLUDE\10.0.14393.0\UCRT\CORECRT_WCTYPE.H
C:\PROGRAM FILES (X86)\WINDOWS KITS\10\INCLUDE\10.0.14393.0\UCRT\CORECRT_WDIRECT.H
C:\PROGRAM FILES (X86)\WINDOWS KITS\10\INCLUDE\10.0.14393.0\UCRT\CORECRT_WIO.H
C:\PROGRAM FILES (X86)\WINDOWS KITS\10\INCLUDE\10.0.14393.0\UCRT\CORECRT_SHARE.H
C:\PROGRAM FILES (X86)\WINDOWS KITS\10\INCLUDE\10.0.14393.0\UCRT\CORECRT_WPROCESS.H
C:\PROGRAM FILES (X86)\WINDOWS KITS\10\INCLUDE\10.0.14393.0\UCRT\CORECRT_WSTDIO.H
C:\PROGRAM FILES (X86)\WINDOWS KITS\10\INCLUDE\10.0.14393.0\UCRT\CORECRT_WSTRING.H
C:\PROGRAM FILES (X86)\WINDOWS KITS\10\INCLUDE\10.0.14393.0\UCRT\CORECRT_WTIME.H
C:\PROGRAM FILES (X86)\WINDOWS KITS\10\INCLUDE\10.0.14393.0\UCRT\SYS\STAT.H
C:\PROGRAM FILES (X86)\WINDOWS KITS\10\INCLUDE\10.0.14393.0\UCRT\SYS\TYPES.H
C:\PROGRAM FILES (X86)\MICROSOFT VISUAL STUDIO\2017\COMMUNITY\VC\TOOLS\MSVC\14.10.24911\INCLUDE\XSTDDEF
C:\PROGRAM FILES (X86)\MICROSOFT VISUAL STUDIO\2017\COMMUNITY\VC\TOOLS\MSVC\14.10.24911\INCLUDE\CSTDDEF
C:\PROGRAM FILES (X86)\MICROSOFT VISUAL STUDIO\2017\COMMUNITY\VC\TOOLS\MSVC\14.10.24911\INCLUDE\INITIALIZER_LIST
C:\PROGRAM FILES (X86)\MICROSOFT VISUAL STUDIO\2017\COMMUNITY\VC\TOOLS\MSVC\14.10.24911\INCLUDE\NEW
C:\PROGRAM FILES (X86)\MICROSOFT VISUAL STUDIO\2017\COMMUNITY\VC\TOOLS\MSVC\14.10.24911\INCLUDE\EXCEPTION
C:\PROGRAM FILES (X86)\MICROSOFT VISUAL STUDIO\2017\COMMUNITY\VC\TOOLS\MSVC\14.10.24911\INCLUDE\TYPE_TRAITS
C:\PROGRAM FILES (X86)\WINDOWS KITS\10\INCLUDE\10.0.14393.0\UCRT\MALLOC.H
C:\PROGRAM FILES (X86)\MICROSOFT VISUAL STUDIO\2017\COMMUNITY\VC\TOOLS\MSVC\14.10.24911\INCLUDE\VCRUNTIME_EXCEPTION.H
C:\PROGRAM FILES (X86)\MICROSOFT VISUAL STUDIO\2017\COMMUNITY\VC\TOOLS\MSVC\14.10.24911\INCLUDE\EH.H
C:\PROGRAM FILES (X86)\WINDOWS KITS\10\INCLUDE\10.0.14393.0\UCRT\CORECRT_TERMINATE.H
C:\PROGRAM FILES (X86)\MICROSOFT VISUAL STUDIO\2017\COMMUNITY\VC\TOOLS\MSVC\14.10.24911\INCLUDE\VCRUNTIME_NEW.H
C:\PROGRAM FILES (X86)\MICROSOFT VISUAL STUDIO\2017\COMMUNITY\VC\TOOLS\MSVC\14.10.24911\INCLUDE\XUTILITY
C:\PROGRAM FILES (X86)\MICROSOFT VISUAL STUDIO\2017\COMMUNITY\VC\TOOLS\MSVC\14.10.24911\INCLUDE\UTILITY
C:\PROGRAM FILES (X86)\MICROSOFT VISUAL STUDIO\2017\COMMUNITY\VC\TOOLS\MSVC\14.10.24911\INCLUDE\IOSFWD
C:\PROGRAM FILES (X86)\MICROSOFT VISUAL STUDIO\2017\COMMUNITY\VC\TOOLS\MSVC\14.10.24911\INCLUDE\CSTDIO
C:\PROGRAM FILES (X86)\WINDOWS KITS\10\INCLUDE\10.0.14393.0\UCRT\STDIO.H
C:\PROGRAM FILES (X86)\MICROSOFT VISUAL STUDIO\2017\COMMUNITY\VC\TOOLS\MSVC\14.10.24911\INCLUDE\CSTRING
C:\PROGRAM FILES (X86)\WINDOWS KITS\10\INCLUDE\10.0.14393.0\UCRT\STRING.H
C:\PROGRAM FILES (X86)\WINDOWS KITS\10\INCLUDE\10.0.14393.0\UCRT\CORECRT_MEMORY.H
C:\PROGRAM FILES (X86)\WINDOWS KITS\10\INCLUDE\10.0.14393.0\UCRT\CRTDBG.H
C:\PROGRAM FILES (X86)\MICROSOFT VISUAL STUDIO\2017\COMMUNITY\VC\TOOLS\MSVC\14.10.24911\INCLUDE\VCRUNTIME_NEW_DEBUG.H
C:\PROGRAM FILES (X86)\MICROSOFT VISUAL STUDIO\2017\COMMUNITY\VC\TOOLS\MSVC\14.10.24911\INCLUDE\XATOMIC0.H
C:\PROGRAM FILES (X86)\MICROSOFT VISUAL STUDIO\2017\COMMUNITY\VC\TOOLS\MSVC\14.10.24911\INCLUDE\INTRIN0.H
C:\PROGRAM FILES (X86)\MICROSOFT VISUAL STUDIO\2017\COMMUNITY\VC\TOOLS\MSVC\14.10.24911\INCLUDE\STDEXCEPT
C:\PROGRAM FILES (X86)\MICROSOFT VISUAL STUDIO\2017\COMMUNITY\VC\TOOLS\MSVC\14.10.24911\INCLUDE\XSTRING
C:\PROGRAM FILES (X86)\MICROSOFT VISUAL STUDIO\2017\COMMUNITY\VC\TOOLS\MSVC\14.10.24911\INCLUDE\MAP
C:\PROGRAM FILES (X86)\MICROSOFT VISUAL STUDIO\2017\COMMUNITY\VC\TOOLS\MSVC\14.10.24911\INCLUDE\TUPLE
C:\PROGRAM FILES (X86)\MICROSOFT VISUAL STUDIO\2017\COMMUNITY\VC\TOOLS\MSVC\14.10.24911\INCLUDE\XTREE
C:\USERS\SATRI\DOCUMENTS\OPENGLTUTORIAL\EXTERNAL\GLM-0.9.7.1\GLM\GLM.HPP
C:\USERS\SATRI\DOCUMENTS\OPENGLTUTORIAL\EXTERNAL\GLM-0.9.7.1\GLM\DETAIL\_FIXES.HPP
C:\PROGRAM FILES (X86)\MICROSOFT VISUAL STUDIO\2017\COMMUNITY\VC\TOOLS\MSVC\14.10.24911\INCLUDE\CASSERT
C:\PROGRAM FILES (X86)\WINDOWS KITS\10\INCLUDE\10.0.14393.0\UCRT\ASSERT.H
C:\USERS\SATRI\DOCUMENTS\OPENGLTUTORIAL\EXTERNAL\GLM-0.9.7.1\GLM\FWD.HPP
C:\USERS\SATRI\DOCUMENTS\OPENGLTUTORIAL\EXTERNAL\GLM-0.9.7.1\GLM\DETAIL\TYPE_INT.HPP
C:\USERS\SATRI\DOCUMENTS\OPENGLTUTORIAL\EXTERNAL\GLM-0.9.7.1\GLM\DETAIL\SETUP.HPP
C:\USERS\SATRI\DOCUMENTS\OPENGLTUTORIAL\EXTERNAL\GLM-0.9.7.1\GLM\DETAIL\TYPE_FLOAT.HPP
C:\USERS\SATRI\DOCUMENTS\OPENGLTUTORIAL\EXTERNAL\GLM-0.9.7.1\GLM\DETAIL\TYPE_VEC.HPP
C:\USERS\SATRI\DOCUMENTS\OPENGLTUTORIAL\EXTERNAL\GLM-0.9.7.1\GLM\DETAIL\PRECISION.HPP
C:\USERS\SATRI\DOCUMENTS\OPENGLTUTORIAL\EXTERNAL\GLM-0.9.7.1\GLM\DETAIL\TYPE_MAT.HPP
C:\USERS\SATRI\DOCUMENTS\OPENGLTUTORIAL\EXTERNAL\GLM-0.9.7.1\GLM\VEC2.HPP
C:\USERS\SATRI\DOCUMENTS\OPENGLTUTORIAL\EXTERNAL\GLM-0.9.7.1\GLM\DETAIL\TYPE_VEC2.HPP
C:\USERS\SATRI\DOCUMENTS\OPENGLTUTORIAL\EXTERNAL\GLM-0.9.7.1\GLM\DETAIL\TYPE_VEC2.INL
C:\USERS\SATRI\DOCUMENTS\OPENGLTUTORIAL\EXTERNAL\GLM-0.9.7.1\GLM\VEC3.HPP
C:\USERS\SATRI\DOCUMENTS\OPENGLTUTORIAL\EXTERNAL\GLM-0.9.7.1\GLM\DETAIL\TYPE_VEC3.HPP
C:\USERS\SATRI\DOCUMENTS\OPENGLTUTORIAL\EXTERNAL\GLM-0.9.7.1\GLM\DETAIL\TYPE_VEC3.INL
C:\USERS\SATRI\DOCUMENTS\OPENGLTUTORIAL\EXTERNAL\GLM-0.9.7.1\GLM\VEC4.HPP
C:\USERS\SATRI\DOCUMENTS\OPENGLTUTORIAL\EXTERNAL\GLM-0.9.7.1\GLM\DETAIL\TYPE_VEC4.HPP
C:\USERS\SATRI\DOCUMENTS\OPENGLTUTORIAL\EXTERNAL\GLM-0.9.7.1\GLM\DETAIL\TYPE_VEC4.INL
C:\USERS\SATRI\DOCUMENTS\OPENGLTUTORIAL\EXTERNAL\GLM-0.9.7.1\GLM\MAT2X2.HPP
C:\USERS\SATRI\DOCUMENTS\OPENGLTUTORIAL\EXTERNAL\GLM-0.9.7.1\GLM\DETAIL\TYPE_MAT2X2.HPP
C:\USERS\SATRI\DOCUMENTS\OPENGLTUTORIAL\EXTERNAL\GLM-0.9.7.1\GLM\DETAIL\TYPE_MAT2X2.INL
C:\USERS\SATRI\DOCUMENTS\OPENGLTUTORIAL\EXTERNAL\GLM-0.9.7.1\GLM\MAT2X3.HPP
C:\USERS\SATRI\DOCUMENTS\OPENGLTUTORIAL\EXTERNAL\GLM-0.9.7.1\GLM\DETAIL\TYPE_MAT2X3.HPP
C:\USERS\SATRI\DOCUMENTS\OPENGLTUTORIAL\EXTERNAL\GLM-0.9.7.1\GLM\DETAIL\TYPE_MAT2X3.INL
C:\USERS\SATRI\DOCUMENTS\OPENGLTUTORIAL\EXTERNAL\GLM-0.9.7.1\GLM\MAT2X4.HPP
C:\USERS\SATRI\DOCUMENTS\OPENGLTUTORIAL\EXTERNAL\GLM-0.9.7.1\GLM\DETAIL\TYPE_MAT2X4.HPP
C:\USERS\SATRI\DOCUMENTS\OPENGLTUTORIAL\EXTERNAL\GLM-0.9.7.1\GLM\DETAIL\TYPE_MAT2X4.INL
C:\USERS\SATRI\DOCUMENTS\OPENGLTUTORIAL\EXTERNAL\GLM-0.9.7.1\GLM\MAT3X2.HPP
C:\USERS\SATRI\DOCUMENTS\OPENGLTUTORIAL\EXTERNAL\GLM-0.9.7.1\GLM\DETAIL\TYPE_MAT3X2.HPP
C:\USERS\SATRI\DOCUMENTS\OPENGLTUTORIAL\EXTERNAL\GLM-0.9.7.1\GLM\DETAIL\TYPE_MAT3X2.INL
C:\USERS\SATRI\DOCUMENTS\OPENGLTUTORIAL\EXTERNAL\GLM-0.9.7.1\GLM\MAT3X3.HPP
C:\USERS\SATRI\DOCUMENTS\OPENGLTUTORIAL\EXTERNAL\GLM-0.9.7.1\GLM\DETAIL\TYPE_MAT3X3.HPP
C:\USERS\SATRI\DOCUMENTS\OPENGLTUTORIAL\EXTERNAL\GLM-0.9.7.1\GLM\DETAIL\TYPE_MAT3X3.INL
C:\USERS\SATRI\DOCUMENTS\OPENGLTUTORIAL\EXTERNAL\GLM-0.9.7.1\GLM\MAT3X4.HPP
C:\USERS\SATRI\DOCUMENTS\OPENGLTUTORIAL\EXTERNAL\GLM-0.9.7.1\GLM\DETAIL\TYPE_MAT3X4.HPP
C:\USERS\SATRI\DOCUMENTS\OPENGLTUTORIAL\EXTERNAL\GLM-0.9.7.1\GLM\DETAIL\TYPE_MAT3X4.INL
C:\USERS\SATRI\DOCUMENTS\OPENGLTUTORIAL\EXTERNAL\GLM-0.9.7.1\GLM\MAT4X2.HPP
C:\USERS\SATRI\DOCUMENTS\OPENGLTUTORIAL\EXTERNAL\GLM-0.9.7.1\GLM\DETAIL\TYPE_MAT4X2.HPP
C:\USERS\SATRI\DOCUMENTS\OPENGLTUTORIAL\EXTERNAL\GLM-0.9.7.1\GLM\DETAIL\TYPE_MAT4X2.INL
C:\USERS\SATRI\DOCUMENTS\OPENGLTUTORIAL\EXTERNAL\GLM-0.9.7.1\GLM\MAT4X3.HPP
C:\USERS\SATRI\DOCUMENTS\OPENGLTUTORIAL\EXTERNAL\GLM-0.9.7.1\GLM\DETAIL\TYPE_MAT4X3.HPP
C:\USERS\SATRI\DOCUMENTS\OPENGLTUTORIAL\EXTERNAL\GLM-0.9.7.1\GLM\DETAIL\TYPE_MAT4X3.INL
C:\USERS\SATRI\DOCUMENTS\OPENGLTUTORIAL\EXTERNAL\GLM-0.9.7.1\GLM\MAT4X4.HPP
C:\USERS\SATRI\DOCUMENTS\OPENGLTUTORIAL\EXTERNAL\GLM-0.9.7.1\GLM\DETAIL\TYPE_MAT4X4.HPP
C:\USERS\SATRI\DOCUMENTS\OPENGLTUTORIAL\EXTERNAL\GLM-0.9.7.1\GLM\DETAIL\TYPE_MAT4X4.INL
C:\USERS\SATRI\DOCUMENTS\OPENGLTUTORIAL\EXTERNAL\GLM-0.9.7.1\GLM\TRIGONOMETRIC.HPP
C:\USERS\SATRI\DOCUMENTS\OPENGLTUTORIAL\EXTERNAL\GLM-0.9.7.1\GLM\DETAIL\FUNC_TRIGONOMETRIC.HPP
C:\USERS\SATRI\DOCUMENTS\OPENGLTUTORIAL\EXTERNAL\GLM-0.9.7.1\GLM\DETAIL\FUNC_TRIGONOMETRIC.INL
C:\USERS\SATRI\DOCUMENTS\OPENGLTUTORIAL\EXTERNAL\GLM-0.9.7.1\GLM\DETAIL\_VECTORIZE.HPP
C:\USERS\SATRI\DOCUMENTS\OPENGLTUTORIAL\EXTERNAL\GLM-0.9.7.1\GLM\DETAIL\TYPE_VEC1.HPP
C:\USERS\SATRI\DOCUMENTS\OPENGLTUTORIAL\EXTERNAL\GLM-0.9.7.1\GLM\DETAIL\TYPE_VEC1.INL
C:\USERS\SATRI\DOCUMENTS\OPENGLTUTORIAL\EXTERNAL\GLM-0.9.7.1\GLM\EXPONENTIAL.HPP
C:\USERS\SATRI\DOCUMENTS\OPENGLTUTORIAL\EXTERNAL\GLM-0.9.7.1\GLM\DETAIL\FUNC_EXPONENTIAL.HPP
C:\USERS\SATRI\DOCUMENTS\OPENGLTUTORIAL\EXTERNAL\GLM-0.9.7.1\GLM\DETAIL\FUNC_EXPONENTIAL.INL
C:\USERS\SATRI\DOCUMENTS\OPENGLTUTORIAL\EXTERNAL\GLM-0.9.7.1\GLM\DETAIL\FUNC_VECTOR_RELATIONAL.HPP
C:\USERS\SATRI\DOCUMENTS\OPENGLTUTORIAL\EXTERNAL\GLM-0.9.7.1\GLM\DETAIL\FUNC_VECTOR_RELATIONAL.INL
C:\USERS\SATRI\DOCUMENTS\OPENGLTUTORIAL\EXTERNAL\GLM-0.9.7.1\GLM\COMMON.HPP
C:\USERS\SATRI\DOCUMENTS\OPENGLTUTORIAL\EXTERNAL\GLM-0.9.7.1\GLM\DETAIL\FUNC_COMMON.HPP
C:\USERS\SATRI\DOCUMENTS\OPENGLTUTORIAL\EXTERNAL\GLM-0.9.7.1\GLM\DETAIL\FUNC_COMMON.INL
C:\USERS\SATRI\DOCUMENTS\OPENGLTUTORIAL\EXTERNAL\GLM-0.9.7.1\GLM\PACKING.HPP
C:\USERS\SATRI\DOCUMENTS\OPENGLTUTORIAL\EXTERNAL\GLM-0.9.7.1\GLM\DETAIL\FUNC_PACKING.HPP
C:\USERS\SATRI\DOCUMENTS\OPENGLTUTORIAL\EXTERNAL\GLM-0.9.7.1\GLM\DETAIL\FUNC_PACKING.INL
C:\USERS\SATRI\DOCUMENTS\OPENGLTUTORIAL\EXTERNAL\GLM-0.9.7.1\GLM\DETAIL\TYPE_HALF.HPP
C:\USERS\SATRI\DOCUMENTS\OPENGLTUTORIAL\EXTERNAL\GLM-0.9.7.1\GLM\DETAIL\TYPE_HALF.INL
C:\USERS\SATRI\DOCUMENTS\OPENGLTUTORIAL\EXTERNAL\GLM-0.9.7.1\GLM\GEOMETRIC.HPP
C:\USERS\SATRI\DOCUMENTS\OPENGLTUTORIAL\EXTERNAL\GLM-0.9.7.1\GLM\DETAIL\FUNC_GEOMETRIC.HPP
C:\USERS\SATRI\DOCUMENTS\OPENGLTUTORIAL\EXTERNAL\GLM-0.9.7.1\GLM\DETAIL\FUNC_GEOMETRIC.INL
C:\USERS\SATRI\DOCUMENTS\OPENGLTUTORIAL\EXTERNAL\GLM-0.9.7.1\GLM\MATRIX.HPP
C:\USERS\SATRI\DOCUMENTS\OPENGLTUTORIAL\EXTERNAL\GLM-0.9.7.1\GLM\DETAIL\FUNC_MATRIX.HPP
C:\USERS\SATRI\DOCUMENTS\OPENGLTUTORIAL\EXTERNAL\GLM-0.9.7.1\GLM\DETAIL\FUNC_MATRIX.INL
C:\USERS\SATRI\DOCUMENTS\OPENGLTUTORIAL\EXTERNAL\GLM-0.9.7.1\GLM\VECTOR_RELATIONAL.HPP
C:\USERS\SATRI\DOCUMENTS\OPENGLTUTORIAL\EXTERNAL\GLM-0.9.7.1\GLM\INTEGER.HPP
C:\USERS\SATRI\DOCUMENTS\OPENGLTUTORIAL\EXTERNAL\GLM-0.9.7.1\GLM\DETAIL\FUNC_INTEGER.HPP
C:\USERS\SATRI\DOCUMENTS\OPENGLTUTORIAL\EXTERNAL\GLM-0.9.7.1\GLM\DETAIL\FUNC_INTEGER.INL
C:\USERS\SATRI\DOCUMENTS\OPENGLTUTORIAL\COMMON\VBOINDEXER.HPP
^C:\USERS\SATRI\DOCUMENTS\OPENGLTUTORIAL\COMMON\OBJLOADER.CPP
C:\PROGRAM FILES (X86)\MICROSOFT VISUAL STUDIO\2017\COMMUNITY\VC\TOOLS\MSVC\14.10.24911\INCLUDE\VECTOR
C:\PROGRAM FILES (X86)\MICROSOFT VISUAL STUDIO\2017\COMMUNITY\VC\TOOLS\MSVC\14.10.24911\INCLUDE\XMEMORY
C:\PROGRAM FILES (X86)\MICROSOFT VISUAL STUDIO\2017\COMMUNITY\VC\TOOLS\MSVC\14.10.24911\INCLUDE\XMEMORY0
C:\PROGRAM FILES (X86)\MICROSOFT VISUAL STUDIO\2017\COMMUNITY\VC\TOOLS\MSVC\14.10.24911\INCLUDE\CSTDINT
C:\PROGRAM FILES (X86)\MICROSOFT VISUAL STUDIO\2017\COMMUNITY\VC\TOOLS\MSVC\14.10.24911\INCLUDE\YVALS.H
C:\PROGRAM FILES (X86)\MICROSOFT VISUAL STUDIO\2017\COMMUNITY\VC\TOOLS\MSVC\14.10.24911\INCLUDE\XKEYCHECK.H
C:\PROGRAM FILES (X86)\MICROSOFT VISUAL STUDIO\2017\COMMUNITY\VC\TOOLS\MSVC\14.10.24911\INCLUDE\CRTDEFS.H
C:\PROGRAM FILES (X86)\MICROSOFT VISUAL STUDIO\2017\COMMUNITY\VC\TOOLS\MSVC\14.10.24911\INCLUDE\VCRUNTIME.H
C:\PROGRAM FILES (X86)\MICROSOFT VISUAL STUDIO\2017\COMMUNITY\VC\TOOLS\MSVC\14.10.24911\INCLUDE\SAL.H
C:\PROGRAM FILES (X86)\MICROSOFT VISUAL STUDIO\2017\COMMUNITY\VC\TOOLS\MSVC\14.10.24911\INCLUDE\CONCURRENCYSAL.H
C:\PROGRAM FILES (X86)\MICROSOFT VISUAL STUDIO\2017\COMMUNITY\VC\TOOLS\MSVC\14.10.24911\INCLUDE\VADEFS.H
C:\PROGRAM FILES (X86)\WINDOWS KITS\10\INCLUDE\10.0.14393.0\UCRT\CORECRT.H
C:\PROGRAM FILES (X86)\MICROSOFT VISUAL STUDIO\2017\COMMUNITY\VC\TOOLS\MSVC\14.10.24911\INCLUDE\USE_ANSI.H
C:\PROGRAM FILES (X86)\MICROSOFT VISUAL STUDIO\2017\COMMUNITY\VC\TOOLS\MSVC\14.10.24911\INCLUDE\STDINT.H
C:\PROGRAM FILES (X86)\MICROSOFT VISUAL STUDIO\2017\COMMUNITY\VC\TOOLS\MSVC\14.10.24911\INCLUDE\CSTDLIB
C:\PROGRAM FILES (X86)\WINDOWS KITS\10\INCLUDE\10.0.14393.0\UCRT\STDLIB.H
C:\PROGRAM FILES (X86)\WINDOWS KITS\10\INCLUDE\10.0.14393.0\UCRT\CORECRT_MALLOC.H
C:\PROGRAM FILES (X86)\WINDOWS KITS\10\INCLUDE\10.0.14393.0\UCRT\CORECRT_SEARCH.H
C:\PROGRAM FILES (X86)\WINDOWS KITS\10\INCLUDE\10.0.14393.0\UCRT\STDDEF.H
C:\PROGRAM FILES (X86)\WINDOWS KITS\10\INCLUDE\10.0.14393.0\UCRT\CORECRT_WSTDLIB.H
C:\PROGRAM FILES (X86)\MICROSOFT VISUAL STUDIO\2017\COMMUNITY\VC\TOOLS\MSVC\14.10.24911\INCLUDE\LIMITS.H
C:\PROGRAM FILES (X86)\WINDOWS KITS\10\INCLUDE\10.0.14393.0\UCRT\MATH.H
C:\PROGRAM FILES (X86)\MICROSOFT VISUAL STUDIO\2017\COMMUNITY\VC\TOOLS\MSVC\14.10.24911\INCLUDE\LIMITS
C:\PROGRAM FILES (X86)\MICROSOFT VISUAL STUDIO\2017\COMMUNITY\VC\TOOLS\MSVC\14.10.24911\INCLUDE\YMATH.H
C:\PROGRAM FILES (X86)\MICROSOFT VISUAL STUDIO\2017\COMMUNITY\VC\TOOLS\MSVC\14.10.24911\INCLUDE\CFLOAT
C:\PROGRAM FILES (X86)\WINDOWS KITS\10\INCLUDE\10.0.14393.0\UCRT\FLOAT.H
C:\PROGRAM FILES (X86)\MICROSOFT VISUAL STUDIO\2017\COMMUNITY\VC\TOOLS\MSVC\14.10.24911\INCLUDE\CLIMITS
C:\PROGRAM FILES (X86)\MICROSOFT VISUAL STUDIO\2017\COMMUNITY\VC\TOOLS\MSVC\14.10.24911\INCLUDE\CMATH
C:\PROGRAM FILES (X86)\MICROSOFT VISUAL STUDIO\2017\COMMUNITY\VC\TOOLS\MSVC\14.10.24911\INCLUDE\XTGMATH.H
C:\PROGRAM FILES (X86)\MICROSOFT VISUAL STUDIO\2017\COMMUNITY\VC\TOOLS\MSVC\14.10.24911\INCLUDE\XTR1COMMON
C:\PROGRAM FILES (X86)\MICROSOFT VISUAL STUDIO\2017\COMMUNITY\VC\TOOLS\MSVC\14.10.24911\INCLUDE\CWCHAR
C:\PROGRAM FILES (X86)\WINDOWS KITS\10\INCLUDE\10.0.14393.0\UCRT\WCHAR.H
C:\PROGRAM FILES (X86)\WINDOWS KITS\10\INCLUDE\10.0.14393.0\UCRT\CORECRT_MEMCPY_S.H
C:\PROGRAM FILES (X86)\WINDOWS KITS\10\INCLUDE\10.0.14393.0\UCRT\ERRNO.H
C:\PROGRAM FILES (X86)\MICROSOFT VISUAL STUDIO\2017\COMMUNITY\VC\TOOLS\MSVC\14.10.24911\INCLUDE\VCRUNTIME_STRING.H
C:\PROGRAM FILES (X86)\WINDOWS KITS\10\INCLUDE\10.0.14393.0\UCRT\CORECRT_WCONIO.H
C:\PROGRAM FILES (X86)\WINDOWS KITS\10\INCLUDE\10.0.14393.0\UCRT\CORECRT_STDIO_CONFIG.H
C:\PROGRAM FILES (X86)\WINDOWS KITS\10\INCLUDE\10.0.14393.0\UCRT\CORECRT_WCTYPE.H
C:\PROGRAM FILES (X86)\WINDOWS KITS\10\INCLUDE\10.0.14393.0\UCRT\CORECRT_WDIRECT.H
C:\PROGRAM FILES (X86)\WINDOWS KITS\10\INCLUDE\10.0.14393.0\UCRT\CORECRT_WIO.H
C:\PROGRAM FILES (X86)\WINDOWS KITS\10\INCLUDE\10.0.14393.0\UCRT\CORECRT_SHARE.H
C:\PROGRAM FILES (X86)\WINDOWS KITS\10\INCLUDE\10.0.14393.0\UCRT\CORECRT_WPROCESS.H
C:\PROGRAM FILES (X86)\WINDOWS KITS\10\INCLUDE\10.0.14393.0\UCRT\CORECRT_WSTDIO.H
C:\PROGRAM FILES (X86)\WINDOWS KITS\10\INCLUDE\10.0.14393.0\UCRT\CORECRT_WSTRING.H
C:\PROGRAM FILES (X86)\WINDOWS KITS\10\INCLUDE\10.0.14393.0\UCRT\CORECRT_WTIME.H
C:\PROGRAM FILES (X86)\WINDOWS KITS\10\INCLUDE\10.0.14393.0\UCRT\SYS\STAT.H
C:\PROGRAM FILES (X86)\WINDOWS KITS\10\INCLUDE\10.0.14393.0\UCRT\SYS\TYPES.H
C:\PROGRAM FILES (X86)\MICROSOFT VISUAL STUDIO\2017\COMMUNITY\VC\TOOLS\MSVC\14.10.24911\INCLUDE\XSTDDEF
C:\PROGRAM FILES (X86)\MICROSOFT VISUAL STUDIO\2017\COMMUNITY\VC\TOOLS\MSVC\14.10.24911\INCLUDE\CSTDDEF
C:\PROGRAM FILES (X86)\MICROSOFT VISUAL STUDIO\2017\COMMUNITY\VC\TOOLS\MSVC\14.10.24911\INCLUDE\INITIALIZER_LIST
C:\PROGRAM FILES (X86)\MICROSOFT VISUAL STUDIO\2017\COMMUNITY\VC\TOOLS\MSVC\14.10.24911\INCLUDE\NEW
C:\PROGRAM FILES (X86)\MICROSOFT VISUAL STUDIO\2017\COMMUNITY\VC\TOOLS\MSVC\14.10.24911\INCLUDE\EXCEPTION
C:\PROGRAM FILES (X86)\MICROSOFT VISUAL STUDIO\2017\COMMUNITY\VC\TOOLS\MSVC\14.10.24911\INCLUDE\TYPE_TRAITS
C:\PROGRAM FILES (X86)\WINDOWS KITS\10\INCLUDE\10.0.14393.0\UCRT\MALLOC.H
C:\PROGRAM FILES (X86)\MICROSOFT VISUAL STUDIO\2017\COMMUNITY\VC\TOOLS\MSVC\14.10.24911\INCLUDE\VCRUNTIME_EXCEPTION.H
C:\PROGRAM FILES (X86)\MICROSOFT VISUAL STUDIO\2017\COMMUNITY\VC\TOOLS\MSVC\14.10.24911\INCLUDE\EH.H
C:\PROGRAM FILES (X86)\WINDOWS KITS\10\INCLUDE\10.0.14393.0\UCRT\CORECRT_TERMINATE.H
C:\PROGRAM FILES (X86)\MICROSOFT VISUAL STUDIO\2017\COMMUNITY\VC\TOOLS\MSVC\14.10.24911\INCLUDE\VCRUNTIME_NEW.H
C:\PROGRAM FILES (X86)\MICROSOFT VISUAL STUDIO\2017\COMMUNITY\VC\TOOLS\MSVC\14.10.24911\INCLUDE\XUTILITY
C:\PROGRAM FILES (X86)\MICROSOFT VISUAL STUDIO\2017\COMMUNITY\VC\TOOLS\MSVC\14.10.24911\INCLUDE\UTILITY
C:\PROGRAM FILES (X86)\MICROSOFT VISUAL STUDIO\2017\COMMUNITY\VC\TOOLS\MSVC\14.10.24911\INCLUDE\IOSFWD
C:\PROGRAM FILES (X86)\MICROSOFT VISUAL STUDIO\2017\COMMUNITY\VC\TOOLS\MSVC\14.10.24911\INCLUDE\CSTDIO
C:\PROGRAM FILES (X86)\WINDOWS KITS\10\INCLUDE\10.0.14393.0\UCRT\STDIO.H
C:\PROGRAM FILES (X86)\MICROSOFT VISUAL STUDIO\2017\COMMUNITY\VC\TOOLS\MSVC\14.10.24911\INCLUDE\CSTRING
C:\PROGRAM FILES (X86)\WINDOWS KITS\10\INCLUDE\10.0.14393.0\UCRT\STRING.H
C:\PROGRAM FILES (X86)\WINDOWS KITS\10\INCLUDE\10.0.14393.0\UCRT\CORECRT_MEMORY.H
C:\PROGRAM FILES (X86)\WINDOWS KITS\10\INCLUDE\10.0.14393.0\UCRT\CRTDBG.H
C:\PROGRAM FILES (X86)\MICROSOFT VISUAL STUDIO\2017\COMMUNITY\VC\TOOLS\MSVC\14.10.24911\INCLUDE\VCRUNTIME_NEW_DEBUG.H
C:\PROGRAM FILES (X86)\MICROSOFT VISUAL STUDIO\2017\COMMUNITY\VC\TOOLS\MSVC\14.10.24911\INCLUDE\XATOMIC0.H
C:\PROGRAM FILES (X86)\MICROSOFT VISUAL STUDIO\2017\COMMUNITY\VC\TOOLS\MSVC\14.10.24911\INCLUDE\INTRIN0.H
C:\PROGRAM FILES (X86)\MICROSOFT VISUAL STUDIO\2017\COMMUNITY\VC\TOOLS\MSVC\14.10.24911\INCLUDE\STDEXCEPT
C:\PROGRAM FILES (X86)\MICROSOFT VISUAL STUDIO\2017\COMMUNITY\VC\TOOLS\MSVC\14.10.24911\INCLUDE\XSTRING
C:\PROGRAM FILES (X86)\MICROSOFT VISUAL STUDIO\2017\COMMUNITY\VC\TOOLS\MSVC\14.10.24911\INCLUDE\STRING
C:\PROGRAM FILES (X86)\MICROSOFT VISUAL STUDIO\2017\COMMUNITY\VC\TOOLS\MSVC\14.10.24911\INCLUDE\ISTREAM
C:\PROGRAM FILES (X86)\MICROSOFT VISUAL STUDIO\2017\COMMUNITY\VC\TOOLS\MSVC\14.10.24911\INCLUDE\OSTREAM
C:\PROGRAM FILES (X86)\MICROSOFT VISUAL STUDIO\2017\COMMUNITY\VC\TOOLS\MSVC\14.10.24911\INCLUDE\IOS
C:\PROGRAM FILES (X86)\MICROSOFT VISUAL STUDIO\2017\COMMUNITY\VC\TOOLS\MSVC\14.10.24911\INCLUDE\XLOCNUM
C:\PROGRAM FILES (X86)\MICROSOFT VISUAL STUDIO\2017\COMMUNITY\VC\TOOLS\MSVC\14.10.24911\INCLUDE\STREAMBUF
C:\PROGRAM FILES (X86)\MICROSOFT VISUAL STUDIO\2017\COMMUNITY\VC\TOOLS\MSVC\14.10.24911\INCLUDE\XIOSBASE
C:\PROGRAM FILES (X86)\MICROSOFT VISUAL STUDIO\2017\COMMUNITY\VC\TOOLS\MSVC\14.10.24911\INCLUDE\XLOCALE
C:\PROGRAM FILES (X86)\MICROSOFT VISUAL STUDIO\2017\COMMUNITY\VC\TOOLS\MSVC\14.10.24911\INCLUDE\TYPEINFO
C:\PROGRAM FILES (X86)\MICROSOFT VISUAL STUDIO\2017\COMMUNITY\VC\TOOLS\MSVC\14.10.24911\INCLUDE\VCRUNTIME_TYPEINFO.H
C:\PROGRAM FILES (X86)\MICROSOFT VISUAL STUDIO\2017\COMMUNITY\VC\TOOLS\MSVC\14.10.24911\INCLUDE\XLOCINFO
C:\PROGRAM FILES (X86)\MICROSOFT VISUAL STUDIO\2017\COMMUNITY\VC\TOOLS\MSVC\14.10.24911\INCLUDE\XLOCINFO.H
C:\PROGRAM FILES (X86)\WINDOWS KITS\10\INCLUDE\10.0.14393.0\UCRT\CTYPE.H
C:\PROGRAM FILES (X86)\WINDOWS KITS\10\INCLUDE\10.0.14393.0\UCRT\LOCALE.H
C:\PROGRAM FILES (X86)\MICROSOFT VISUAL STUDIO\2017\COMMUNITY\VC\TOOLS\MSVC\14.10.24911\INCLUDE\XFACET
C:\PROGRAM FILES (X86)\MICROSOFT VISUAL STUDIO\2017\COMMUNITY\VC\TOOLS\MSVC\14.10.24911\INCLUDE\SYSTEM_ERROR
C:\PROGRAM FILES (X86)\MICROSOFT VISUAL STUDIO\2017\COMMUNITY\VC\TOOLS\MSVC\14.10.24911\INCLUDE\CERRNO
C:\PROGRAM FILES (X86)\WINDOWS KITS\10\INCLUDE\10.0.14393.0\UCRT\SHARE.H
C:\PROGRAM FILES (X86)\MICROSOFT VISUAL STUDIO\2017\COMMUNITY\VC\TOOLS\MSVC\14.10.24911\INCLUDE\XSTRING_INSERT.H
C:\USERS\SATRI\DOCUMENTS\OPENGLTUTORIAL\EXTERNAL\GLM-0.9.7.1\GLM\GLM.HPP
C:\USERS\SATRI\DOCUMENTS\OPENGLTUTORIAL\EXTERNAL\GLM-0.9.7.1\GLM\DETAIL\_FIXES.HPP
C:\PROGRAM FILES (X86)\MICROSOFT VISUAL STUDIO\2017\COMMUNITY\VC\TOOLS\MSVC\14.10.24911\INCLUDE\CASSERT
C:\PROGRAM FILES (X86)\WINDOWS KITS\10\INCLUDE\10.0.14393.0\UCRT\ASSERT.H
C:\USERS\SATRI\DOCUMENTS\OPENGLTUTORIAL\EXTERNAL\GLM-0.9.7.1\GLM\FWD.HPP
C:\USERS\SATRI\DOCUMENTS\OPENGLTUTORIAL\EXTERNAL\GLM-0.9.7.1\GLM\DETAIL\TYPE_INT.HPP
C:\USERS\SATRI\DOCUMENTS\OPENGLTUTORIAL\EXTERNAL\GLM-0.9.7.1\GLM\DETAIL\SETUP.HPP
C:\USERS\SATRI\DOCUMENTS\OPENGLTUTORIAL\EXTERNAL\GLM-0.9.7.1\GLM\DETAIL\TYPE_FLOAT.HPP
C:\USERS\SATRI\DOCUMENTS\OPENGLTUTORIAL\EXTERNAL\GLM-0.9.7.1\GLM\DETAIL\TYPE_VEC.HPP
C:\USERS\SATRI\DOCUMENTS\OPENGLTUTORIAL\EXTERNAL\GLM-0.9.7.1\GLM\DETAIL\PRECISION.HPP
C:\USERS\SATRI\DOCUMENTS\OPENGLTUTORIAL\EXTERNAL\GLM-0.9.7.1\GLM\DETAIL\TYPE_MAT.HPP
C:\USERS\SATRI\DOCUMENTS\OPENGLTUTORIAL\EXTERNAL\GLM-0.9.7.1\GLM\VEC2.HPP
C:\USERS\SATRI\DOCUMENTS\OPENGLTUTORIAL\EXTERNAL\GLM-0.9.7.1\GLM\DETAIL\TYPE_VEC2.HPP
C:\USERS\SATRI\DOCUMENTS\OPENGLTUTORIAL\EXTERNAL\GLM-0.9.7.1\GLM\DETAIL\TYPE_VEC2.INL
C:\USERS\SATRI\DOCUMENTS\OPENGLTUTORIAL\EXTERNAL\GLM-0.9.7.1\GLM\VEC3.HPP
C:\USERS\SATRI\DOCUMENTS\OPENGLTUTORIAL\EXTERNAL\GLM-0.9.7.1\GLM\DETAIL\TYPE_VEC3.HPP
C:\USERS\SATRI\DOCUMENTS\OPENGLTUTORIAL\EXTERNAL\GLM-0.9.7.1\GLM\DETAIL\TYPE_VEC3.INL
C:\USERS\SATRI\DOCUMENTS\OPENGLTUTORIAL\EXTERNAL\GLM-0.9.7.1\GLM\VEC4.HPP
C:\USERS\SATRI\DOCUMENTS\OPENGLTUTORIAL\EXTERNAL\GLM-0.9.7.1\GLM\DETAIL\TYPE_VEC4.HPP
C:\USERS\SATRI\DOCUMENTS\OPENGLTUTORIAL\EXTERNAL\GLM-0.9.7.1\GLM\DETAIL\TYPE_VEC4.INL
C:\USERS\SATRI\DOCUMENTS\OPENGLTUTORIAL\EXTERNAL\GLM-0.9.7.1\GLM\MAT2X2.HPP
C:\USERS\SATRI\DOCUMENTS\OPENGLTUTORIAL\EXTERNAL\GLM-0.9.7.1\GLM\DETAIL\TYPE_MAT2X2.HPP
C:\USERS\SATRI\DOCUMENTS\OPENGLTUTORIAL\EXTERNAL\GLM-0.9.7.1\GLM\DETAIL\TYPE_MAT2X2.INL
C:\USERS\SATRI\DOCUMENTS\OPENGLTUTORIAL\EXTERNAL\GLM-0.9.7.1\GLM\MAT2X3.HPP
C:\USERS\SATRI\DOCUMENTS\OPENGLTUTORIAL\EXTERNAL\GLM-0.9.7.1\GLM\DETAIL\TYPE_MAT2X3.HPP
C:\USERS\SATRI\DOCUMENTS\OPENGLTUTORIAL\EXTERNAL\GLM-0.9.7.1\GLM\DETAIL\TYPE_MAT2X3.INL
C:\USERS\SATRI\DOCUMENTS\OPENGLTUTORIAL\EXTERNAL\GLM-0.9.7.1\GLM\MAT2X4.HPP
C:\USERS\SATRI\DOCUMENTS\OPENGLTUTORIAL\EXTERNAL\GLM-0.9.7.1\GLM\DETAIL\TYPE_MAT2X4.HPP
C:\USERS\SATRI\DOCUMENTS\OPENGLTUTORIAL\EXTERNAL\GLM-0.9.7.1\GLM\DETAIL\TYPE_MAT2X4.INL
C:\USERS\SATRI\DOCUMENTS\OPENGLTUTORIAL\EXTERNAL\GLM-0.9.7.1\GLM\MAT3X2.HPP
C:\USERS\SATRI\DOCUMENTS\OPENGLTUTORIAL\EXTERNAL\GLM-0.9.7.1\GLM\DETAIL\TYPE_MAT3X2.HPP
C:\USERS\SATRI\DOCUMENTS\OPENGLTUTORIAL\EXTERNAL\GLM-0.9.7.1\GLM\DETAIL\TYPE_MAT3X2.INL
C:\USERS\SATRI\DOCUMENTS\OPENGLTUTORIAL\EXTERNAL\GLM-0.9.7.1\GLM\MAT3X3.HPP
C:\USERS\SATRI\DOCUMENTS\OPENGLTUTORIAL\EXTERNAL\GLM-0.9.7.1\GLM\DETAIL\TYPE_MAT3X3.HPP
C:\USERS\SATRI\DOCUMENTS\OPENGLTUTORIAL\EXTERNAL\GLM-0.9.7.1\GLM\DETAIL\TYPE_MAT3X3.INL
C:\USERS\SATRI\DOCUMENTS\OPENGLTUTORIAL\EXTERNAL\GLM-0.9.7.1\GLM\MAT3X4.HPP
C:\USERS\SATRI\DOCUMENTS\OPENGLTUTORIAL\EXTERNAL\GLM-0.9.7.1\GLM\DETAIL\TYPE_MAT3X4.HPP
C:\USERS\SATRI\DOCUMENTS\OPENGLTUTORIAL\EXTERNAL\GLM-0.9.7.1\GLM\DETAIL\TYPE_MAT3X4.INL
C:\USERS\SATRI\DOCUMENTS\OPENGLTUTORIAL\EXTERNAL\GLM-0.9.7.1\GLM\MAT4X2.HPP
C:\USERS\SATRI\DOCUMENTS\OPENGLTUTORIAL\EXTERNAL\GLM-0.9.7.1\GLM\DETAIL\TYPE_MAT4X2.HPP
C:\USERS\SATRI\DOCUMENTS\OPENGLTUTORIAL\EXTERNAL\GLM-0.9.7.1\GLM\DETAIL\TYPE_MAT4X2.INL
C:\USERS\SATRI\DOCUMENTS\OPENGLTUTORIAL\EXTERNAL\GLM-0.9.7.1\GLM\MAT4X3.HPP
C:\USERS\SATRI\DOCUMENTS\OPENGLTUTORIAL\EXTERNAL\GLM-0.9.7.1\GLM\DETAIL\TYPE_MAT4X3.HPP
C:\USERS\SATRI\DOCUMENTS\OPENGLTUTORIAL\EXTERNAL\GLM-0.9.7.1\GLM\DETAIL\TYPE_MAT4X3.INL
C:\USERS\SATRI\DOCUMENTS\OPENGLTUTORIAL\EXTERNAL\GLM-0.9.7.1\GLM\MAT4X4.HPP
C:\USERS\SATRI\DOCUMENTS\OPENGLTUTORIAL\EXTERNAL\GLM-0.9.7.1\GLM\DETAIL\TYPE_MAT4X4.HPP
C:\USERS\SATRI\DOCUMENTS\OPENGLTUTORIAL\EXTERNAL\GLM-0.9.7.1\GLM\DETAIL\TYPE_MAT4X4.INL
C:\USERS\SATRI\DOCUMENTS\OPENGLTUTORIAL\EXTERNAL\GLM-0.9.7.1\GLM\TRIGONOMETRIC.HPP
C:\USERS\SATRI\DOCUMENTS\OPENGLTUTORIAL\EXTERNAL\GLM-0.9.7.1\GLM\DETAIL\FUNC_TRIGONOMETRIC.HPP
C:\USERS\SATRI\DOCUMENTS\OPENGLTUTORIAL\EXTERNAL\GLM-0.9.7.1\GLM\DETAIL\FUNC_TRIGONOMETRIC.INL
C:\USERS\SATRI\DOCUMENTS\OPENGLTUTORIAL\EXTERNAL\GLM-0.9.7.1\GLM\DETAIL\_VECTORIZE.HPP
C:\USERS\SATRI\DOCUMENTS\OPENGLTUTORIAL\EXTERNAL\GLM-0.9.7.1\GLM\DETAIL\TYPE_VEC1.HPP
C:\USERS\SATRI\DOCUMENTS\OPENGLTUTORIAL\EXTERNAL\GLM-0.9.7.1\GLM\DETAIL\TYPE_VEC1.INL
C:\USERS\SATRI\DOCUMENTS\OPENGLTUTORIAL\EXTERNAL\GLM-0.9.7.1\GLM\EXPONENTIAL.HPP
C:\USERS\SATRI\DOCUMENTS\OPENGLTUTORIAL\EXTERNAL\GLM-0.9.7.1\GLM\DETAIL\FUNC_EXPONENTIAL.HPP
C:\USERS\SATRI\DOCUMENTS\OPENGLTUTORIAL\EXTERNAL\GLM-0.9.7.1\GLM\DETAIL\FUNC_EXPONENTIAL.INL
C:\USERS\SATRI\DOCUMENTS\OPENGLTUTORIAL\EXTERNAL\GLM-0.9.7.1\GLM\DETAIL\FUNC_VECTOR_RELATIONAL.HPP
C:\USERS\SATRI\DOCUMENTS\OPENGLTUTORIAL\EXTERNAL\GLM-0.9.7.1\GLM\DETAIL\FUNC_VECTOR_RELATIONAL.INL
C:\USERS\SATRI\DOCUMENTS\OPENGLTUTORIAL\EXTERNAL\GLM-0.9.7.1\GLM\COMMON.HPP
C:\USERS\SATRI\DOCUMENTS\OPENGLTUTORIAL\EXTERNAL\GLM-0.9.7.1\GLM\DETAIL\FUNC_COMMON.HPP
C:\USERS\SATRI\DOCUMENTS\OPENGLTUTORIAL\EXTERNAL\GLM-0.9.7.1\GLM\DETAIL\FUNC_COMMON.INL
C:\USERS\SATRI\DOCUMENTS\OPENGLTUTORIAL\EXTERNAL\GLM-0.9.7.1\GLM\PACKING.HPP
C:\USERS\SATRI\DOCUMENTS\OPENGLTUTORIAL\EXTERNAL\GLM-0.9.7.1\GLM\DETAIL\FUNC_PACKING.HPP
C:\USERS\SATRI\DOCUMENTS\OPENGLTUTORIAL\EXTERNAL\GLM-0.9.7.1\GLM\DETAIL\FUNC_PACKING.INL
C:\USERS\SATRI\DOCUMENTS\OPENGLTUTORIAL\EXTERNAL\GLM-0.9.7.1\GLM\DETAIL\TYPE_HALF.HPP
C:\USERS\SATRI\DOCUMENTS\OPENGLTUTORIAL\EXTERNAL\GLM-0.9.7.1\GLM\DETAIL\TYPE_HALF.INL
C:\USERS\SATRI\DOCUMENTS\OPENGLTUTORIAL\EXTERNAL\GLM-0.9.7.1\GLM\GEOMETRIC.HPP
C:\USERS\SATRI\DOCUMENTS\OPENGLTUTORIAL\EXTERNAL\GLM-0.9.7.1\GLM\DETAIL\FUNC_GEOMETRIC.HPP
C:\USERS\SATRI\DOCUMENTS\OPENGLTUTORIAL\EXTERNAL\GLM-0.9.7.1\GLM\DETAIL\FUNC_GEOMETRIC.INL
C:\USERS\SATRI\DOCUMENTS\OPENGLTUTORIAL\EXTERNAL\GLM-0.9.7.1\GLM\MATRIX.HPP
C:\USERS\SATRI\DOCUMENTS\OPENGLTUTORIAL\EXTERNAL\GLM-0.9.7.1\GLM\DETAIL\FUNC_MATRIX.HPP
C:\USERS\SATRI\DOCUMENTS\OPENGLTUTORIAL\EXTERNAL\GLM-0.9.7.1\GLM\DETAIL\FUNC_MATRIX.INL
C:\USERS\SATRI\DOCUMENTS\OPENGLTUTORIAL\EXTERNAL\GLM-0.9.7.1\GLM\VECTOR_RELATIONAL.HPP
C:\USERS\SATRI\DOCUMENTS\OPENGLTUTORIAL\EXTERNAL\GLM-0.9.7.1\GLM\INTEGER.HPP
C:\USERS\SATRI\DOCUMENTS\OPENGLTUTORIAL\EXTERNAL\GLM-0.9.7.1\GLM\DETAIL\FUNC_INTEGER.HPP
C:\USERS\SATRI\DOCUMENTS\OPENGLTUTORIAL\EXTERNAL\GLM-0.9.7.1\GLM\DETAIL\FUNC_INTEGER.INL
C:\USERS\SATRI\DOCUMENTS\OPENGLTUTORIAL\COMMON\OBJLOADER.HPP
^C:\USERS\SATRI\DOCUMENTS\OPENGLTUTORIAL\COMMON\SHADER.CPP
C:\PROGRAM FILES (X86)\WINDOWS KITS\10\INCLUDE\10.0.14393.0\UCRT\STDIO.H
C:\PROGRAM FILES (X86)\WINDOWS KITS\10\INCLUDE\10.0.14393.0\UCRT\CORECRT.H
C:\PROGRAM FILES (X86)\MICROSOFT VISUAL STUDIO\2017\COMMUNITY\VC\TOOLS\MSVC\14.10.24911\INCLUDE\VCRUNTIME.H
C:\PROGRAM FILES (X86)\MICROSOFT VISUAL STUDIO\2017\COMMUNITY\VC\TOOLS\MSVC\14.10.24911\INCLUDE\SAL.H
C:\PROGRAM FILES (X86)\MICROSOFT VISUAL STUDIO\2017\COMMUNITY\VC\TOOLS\MSVC\14.10.24911\INCLUDE\CONCURRENCYSAL.H
C:\PROGRAM FILES (X86)\MICROSOFT VISUAL STUDIO\2017\COMMUNITY\VC\TOOLS\MSVC\14.10.24911\INCLUDE\VADEFS.H
C:\PROGRAM FILES (X86)\WINDOWS KITS\10\INCLUDE\10.0.14393.0\UCRT\CORECRT_WSTDIO.H
C:\PROGRAM FILES (X86)\WINDOWS KITS\10\INCLUDE\10.0.14393.0\UCRT\CORECRT_STDIO_CONFIG.H
C:\PROGRAM FILES (X86)\MICROSOFT VISUAL STUDIO\2017\COMMUNITY\VC\TOOLS\MSVC\14.10.24911\INCLUDE\STRING
C:\PROGRAM FILES (X86)\MICROSOFT VISUAL STUDIO\2017\COMMUNITY\VC\TOOLS\MSVC\14.10.24911\INCLUDE\ISTREAM
C:\PROGRAM FILES (X86)\MICROSOFT VISUAL STUDIO\2017\COMMUNITY\VC\TOOLS\MSVC\14.10.24911\INCLUDE\OSTREAM
C:\PROGRAM FILES (X86)\MICROSOFT VISUAL STUDIO\2017\COMMUNITY\VC\TOOLS\MSVC\14.10.24911\INCLUDE\IOS
C:\PROGRAM FILES (X86)\MICROSOFT VISUAL STUDIO\2017\COMMUNITY\VC\TOOLS\MSVC\14.10.24911\INCLUDE\XLOCNUM
C:\PROGRAM FILES (X86)\MICROSOFT VISUAL STUDIO\2017\COMMUNITY\VC\TOOLS\MSVC\14.10.24911\INCLUDE\CLIMITS
C:\PROGRAM FILES (X86)\MICROSOFT VISUAL STUDIO\2017\COMMUNITY\VC\TOOLS\MSVC\14.10.24911\INCLUDE\YVALS.H
C:\PROGRAM FILES (X86)\MICROSOFT VISUAL STUDIO\2017\COMMUNITY\VC\TOOLS\MSVC\14.10.24911\INCLUDE\XKEYCHECK.H
C:\PROGRAM FILES (X86)\MICROSOFT VISUAL STUDIO\2017\COMMUNITY\VC\TOOLS\MSVC\14.10.24911\INCLUDE\CRTDEFS.H
C:\PROGRAM FILES (X86)\MICROSOFT VISUAL STUDIO\2017\COMMUNITY\VC\TOOLS\MSVC\14.10.24911\INCLUDE\USE_ANSI.H
C:\PROGRAM FILES (X86)\MICROSOFT VISUAL STUDIO\2017\COMMUNITY\VC\TOOLS\MSVC\14.10.24911\INCLUDE\LIMITS.H
C:\PROGRAM FILES (X86)\MICROSOFT VISUAL STUDIO\2017\COMMUNITY\VC\TOOLS\MSVC\14.10.24911\INCLUDE\CMATH
C:\PROGRAM FILES (X86)\MICROSOFT VISUAL STUDIO\2017\COMMUNITY\VC\TOOLS\MSVC\14.10.24911\INCLUDE\CSTDLIB
C:\PROGRAM FILES (X86)\WINDOWS KITS\10\INCLUDE\10.0.14393.0\UCRT\STDLIB.H
C:\PROGRAM FILES (X86)\WINDOWS KITS\10\INCLUDE\10.0.14393.0\UCRT\CORECRT_MALLOC.H
C:\PROGRAM FILES (X86)\WINDOWS KITS\10\INCLUDE\10.0.14393.0\UCRT\CORECRT_SEARCH.H
C:\PROGRAM FILES (X86)\WINDOWS KITS\10\INCLUDE\10.0.14393.0\UCRT\STDDEF.H
C:\PROGRAM FILES (X86)\WINDOWS KITS\10\INCLUDE\10.0.14393.0\UCRT\CORECRT_WSTDLIB.H
C:\PROGRAM FILES (X86)\WINDOWS KITS\10\INCLUDE\10.0.14393.0\UCRT\MATH.H
C:\PROGRAM FILES (X86)\MICROSOFT VISUAL STUDIO\2017\COMMUNITY\VC\TOOLS\MSVC\14.10.24911\INCLUDE\XTGMATH.H
C:\PROGRAM FILES (X86)\MICROSOFT VISUAL STUDIO\2017\COMMUNITY\VC\TOOLS\MSVC\14.10.24911\INCLUDE\XTR1COMMON
C:\PROGRAM FILES (X86)\MICROSOFT VISUAL STUDIO\2017\COMMUNITY\VC\TOOLS\MSVC\14.10.24911\INCLUDE\CSTDIO
C:\PROGRAM FILES (X86)\MICROSOFT VISUAL STUDIO\2017\COMMUNITY\VC\TOOLS\MSVC\14.10.24911\INCLUDE\STREAMBUF
C:\PROGRAM FILES (X86)\MICROSOFT VISUAL STUDIO\2017\COMMUNITY\VC\TOOLS\MSVC\14.10.24911\INCLUDE\XIOSBASE
C:\PROGRAM FILES (X86)\MICROSOFT VISUAL STUDIO\2017\COMMUNITY\VC\TOOLS\MSVC\14.10.24911\INCLUDE\XLOCALE
C:\PROGRAM FILES (X86)\MICROSOFT VISUAL STUDIO\2017\COMMUNITY\VC\TOOLS\MSVC\14.10.24911\INCLUDE\CSTRING
C:\PROGRAM FILES (X86)\WINDOWS KITS\10\INCLUDE\10.0.14393.0\UCRT\STRING.H
C:\PROGRAM FILES (X86)\WINDOWS KITS\10\INCLUDE\10.0.14393.0\UCRT\CORECRT_MEMORY.H
C:\PROGRAM FILES (X86)\WINDOWS KITS\10\INCLUDE\10.0.14393.0\UCRT\CORECRT_MEMCPY_S.H
C:\PROGRAM FILES (X86)\WINDOWS KITS\10\INCLUDE\10.0.14393.0\UCRT\ERRNO.H
C:\PROGRAM FILES (X86)\MICROSOFT VISUAL STUDIO\2017\COMMUNITY\VC\TOOLS\MSVC\14.10.24911\INCLUDE\VCRUNTIME_STRING.H
C:\PROGRAM FILES (X86)\WINDOWS KITS\10\INCLUDE\10.0.14393.0\UCRT\CORECRT_WSTRING.H
C:\PROGRAM FILES (X86)\MICROSOFT VISUAL STUDIO\2017\COMMUNITY\VC\TOOLS\MSVC\14.10.24911\INCLUDE\STDEXCEPT
C:\PROGRAM FILES (X86)\MICROSOFT VISUAL STUDIO\2017\COMMUNITY\VC\TOOLS\MSVC\14.10.24911\INCLUDE\EXCEPTION
C:\PROGRAM FILES (X86)\MICROSOFT VISUAL STUDIO\2017\COMMUNITY\VC\TOOLS\MSVC\14.10.24911\INCLUDE\TYPE_TRAITS
C:\PROGRAM FILES (X86)\MICROSOFT VISUAL STUDIO\2017\COMMUNITY\VC\TOOLS\MSVC\14.10.24911\INCLUDE\XSTDDEF
C:\PROGRAM FILES (X86)\MICROSOFT VISUAL STUDIO\2017\COMMUNITY\VC\TOOLS\MSVC\14.10.24911\INCLUDE\CSTDDEF
C:\PROGRAM FILES (X86)\MICROSOFT VISUAL STUDIO\2017\COMMUNITY\VC\TOOLS\MSVC\14.10.24911\INCLUDE\INITIALIZER_LIST
C:\PROGRAM FILES (X86)\WINDOWS KITS\10\INCLUDE\10.0.14393.0\UCRT\MALLOC.H
C:\PROGRAM FILES (X86)\MICROSOFT VISUAL STUDIO\2017\COMMUNITY\VC\TOOLS\MSVC\14.10.24911\INCLUDE\VCRUNTIME_EXCEPTION.H
C:\PROGRAM FILES (X86)\MICROSOFT VISUAL STUDIO\2017\COMMUNITY\VC\TOOLS\MSVC\14.10.24911\INCLUDE\EH.H
C:\PROGRAM FILES (X86)\WINDOWS KITS\10\INCLUDE\10.0.14393.0\UCRT\CORECRT_TERMINATE.H
C:\PROGRAM FILES (X86)\MICROSOFT VISUAL STUDIO\2017\COMMUNITY\VC\TOOLS\MSVC\14.10.24911\INCLUDE\XSTRING
C:\PROGRAM FILES (X86)\MICROSOFT VISUAL STUDIO\2017\COMMUNITY\VC\TOOLS\MSVC\14.10.24911\INCLUDE\XMEMORY0
C:\PROGRAM FILES (X86)\MICROSOFT VISUAL STUDIO\2017\COMMUNITY\VC\TOOLS\MSVC\14.10.24911\INCLUDE\CSTDINT
C:\PROGRAM FILES (X86)\MICROSOFT VISUAL STUDIO\2017\COMMUNITY\VC\TOOLS\MSVC\14.10.24911\INCLUDE\STDINT.H
C:\PROGRAM FILES (X86)\MICROSOFT VISUAL STUDIO\2017\COMMUNITY\VC\TOOLS\MSVC\14.10.24911\INCLUDE\LIMITS
C:\PROGRAM FILES (X86)\MICROSOFT VISUAL STUDIO\2017\COMMUNITY\VC\TOOLS\MSVC\14.10.24911\INCLUDE\YMATH.H
C:\PROGRAM FILES (X86)\MICROSOFT VISUAL STUDIO\2017\COMMUNITY\VC\TOOLS\MSVC\14.10.24911\INCLUDE\CFLOAT
C:\PROGRAM FILES (X86)\WINDOWS KITS\10\INCLUDE\10.0.14393.0\UCRT\FLOAT.H
C:\PROGRAM FILES (X86)\MICROSOFT VISUAL STUDIO\2017\COMMUNITY\VC\TOOLS\MSVC\14.10.24911\INCLUDE\CWCHAR
C:\PROGRAM FILES (X86)\WINDOWS KITS\10\INCLUDE\10.0.14393.0\UCRT\WCHAR.H
C:\PROGRAM FILES (X86)\WINDOWS KITS\10\INCLUDE\10.0.14393.0\UCRT\CORECRT_WCONIO.H
C:\PROGRAM FILES (X86)\WINDOWS KITS\10\INCLUDE\10.0.14393.0\UCRT\CORECRT_WCTYPE.H
C:\PROGRAM FILES (X86)\WINDOWS KITS\10\INCLUDE\10.0.14393.0\UCRT\CORECRT_WDIRECT.H
C:\PROGRAM FILES (X86)\WINDOWS KITS\10\INCLUDE\10.0.14393.0\UCRT\CORECRT_WIO.H
C:\PROGRAM FILES (X86)\WINDOWS KITS\10\INCLUDE\10.0.14393.0\UCRT\CORECRT_SHARE.H
C:\PROGRAM FILES (X86)\WINDOWS KITS\10\INCLUDE\10.0.14393.0\UCRT\CORECRT_WPROCESS.H
C:\PROGRAM FILES (X86)\WINDOWS KITS\10\INCLUDE\10.0.14393.0\UCRT\CORECRT_WTIME.H
C:\PROGRAM FILES (X86)\WINDOWS KITS\10\INCLUDE\10.0.14393.0\UCRT\SYS\STAT.H
C:\PROGRAM FILES (X86)\WINDOWS KITS\10\INCLUDE\10.0.14393.0\UCRT\SYS\TYPES.H
C:\PROGRAM FILES (X86)\MICROSOFT VISUAL STUDIO\2017\COMMUNITY\VC\TOOLS\MSVC\14.10.24911\INCLUDE\NEW
C:\PROGRAM FILES (X86)\MICROSOFT VISUAL STUDIO\2017\COMMUNITY\VC\TOOLS\MSVC\14.10.24911\INCLUDE\VCRUNTIME_NEW.H
C:\PROGRAM FILES (X86)\MICROSOFT VISUAL STUDIO\2017\COMMUNITY\VC\TOOLS\MSVC\14.10.24911\INCLUDE\XUTILITY
C:\PROGRAM FILES (X86)\MICROSOFT VISUAL STUDIO\2017\COMMUNITY\VC\TOOLS\MSVC\14.10.24911\INCLUDE\UTILITY
C:\PROGRAM FILES (X86)\MICROSOFT VISUAL STUDIO\2017\COMMUNITY\VC\TOOLS\MSVC\14.10.24911\INCLUDE\IOSFWD
C:\PROGRAM FILES (X86)\WINDOWS KITS\10\INCLUDE\10.0.14393.0\UCRT\CRTDBG.H
C:\PROGRAM FILES (X86)\MICROSOFT VISUAL STUDIO\2017\COMMUNITY\VC\TOOLS\MSVC\14.10.24911\INCLUDE\VCRUNTIME_NEW_DEBUG.H
C:\PROGRAM FILES (X86)\MICROSOFT VISUAL STUDIO\2017\COMMUNITY\VC\TOOLS\MSVC\14.10.24911\INCLUDE\XATOMIC0.H
C:\PROGRAM FILES (X86)\MICROSOFT VISUAL STUDIO\2017\COMMUNITY\VC\TOOLS\MSVC\14.10.24911\INCLUDE\INTRIN0.H
C:\PROGRAM FILES (X86)\MICROSOFT VISUAL STUDIO\2017\COMMUNITY\VC\TOOLS\MSVC\14.10.24911\INCLUDE\TYPEINFO
C:\PROGRAM FILES (X86)\MICROSOFT VISUAL STUDIO\2017\COMMUNITY\VC\TOOLS\MSVC\14.10.24911\INCLUDE\VCRUNTIME_TYPEINFO.H
C:\PROGRAM FILES (X86)\MICROSOFT VISUAL STUDIO\2017\COMMUNITY\VC\TOOLS\MSVC\14.10.24911\INCLUDE\XLOCINFO
C:\PROGRAM FILES (X86)\MICROSOFT VISUAL STUDIO\2017\COMMUNITY\VC\TOOLS\MSVC\14.10.24911\INCLUDE\XLOCINFO.H
C:\PROGRAM FILES (X86)\WINDOWS KITS\10\INCLUDE\10.0.14393.0\UCRT\CTYPE.H
C:\PROGRAM FILES (X86)\WINDOWS KITS\10\INCLUDE\10.0.14393.0\UCRT\LOCALE.H
C:\PROGRAM FILES (X86)\MICROSOFT VISUAL STUDIO\2017\COMMUNITY\VC\TOOLS\MSVC\14.10.24911\INCLUDE\XFACET
C:\PROGRAM FILES (X86)\MICROSOFT VISUAL STUDIO\2017\COMMUNITY\VC\TOOLS\MSVC\14.10.24911\INCLUDE\SYSTEM_ERROR
C:\PROGRAM FILES (X86)\MICROSOFT VISUAL STUDIO\2017\COMMUNITY\VC\TOOLS\MSVC\14.10.24911\INCLUDE\CERRNO
C:\PROGRAM FILES (X86)\WINDOWS KITS\10\INCLUDE\10.0.14393.0\UCRT\SHARE.H
C:\PROGRAM FILES (X86)\MICROSOFT VISUAL STUDIO\2017\COMMUNITY\VC\TOOLS\MSVC\14.10.24911\INCLUDE\XSTRING_INSERT.H
C:\PROGRAM FILES (X86)\MICROSOFT VISUAL STUDIO\2017\COMMUNITY\VC\TOOLS\MSVC\14.10.24911\INCLUDE\VECTOR
C:\PROGRAM FILES (X86)\MICROSOFT VISUAL STUDIO\2017\COMMUNITY\VC\TOOLS\MSVC\14.10.24911\INCLUDE\XMEMORY
C:\PROGRAM FILES (X86)\MICROSOFT VISUAL STUDIO\2017\COMMUNITY\VC\TOOLS\MSVC\14.10.24911\INCLUDE\IOSTREAM
C:\PROGRAM FILES (X86)\MICROSOFT VISUAL STUDIO\2017\COMMUNITY\VC\TOOLS\MSVC\14.10.24911\INCLUDE\FSTREAM
C:\PROGRAM FILES (X86)\MICROSOFT VISUAL STUDIO\2017\COMMUNITY\VC\TOOLS\MSVC\14.10.24911\INCLUDE\ALGORITHM
C:\USERS\SATRI\DOCUMENTS\OPENGLTUTORIAL\EXTERNAL\GLEW-1.13.0\INCLUDE\GL\GLEW.H
C:\PROGRAM FILES (X86)\WINDOWS KITS\10\INCLUDE\10.0.14393.0\UM\GL\GLU.H
C:\PROGRAM FILES (X86)\WINDOWS KITS\10\INCLUDE\10.0.14393.0\SHARED\WINAPIFAMILY.H
C:\PROGRAM FILES (X86)\WINDOWS KITS\10\INCLUDE\10.0.14393.0\SHARED\WINPACKAGEFAMILY.H
C:\PROGRAM FILES (X86)\WINDOWS KITS\10\INCLUDE\10.0.14393.0\UM\GL\GL.H
C:\USERS\SATRI\DOCUMENTS\OPENGLTUTORIAL\COMMON\SHADER.HPP
^C:\USERS\SATRI\DOCUMENTS\OPENGLTUTORIAL\TUTORIAL09_VBO_INDEXING\TUTORIAL09.CPP
C:\PROGRAM FILES (X86)\WINDOWS KITS\10\INCLUDE\10.0.14393.0\UCRT\STDIO.H
C:\PROGRAM FILES (X86)\WINDOWS KITS\10\INCLUDE\10.0.14393.0\UCRT\CORECRT.H
C:\PROGRAM FILES (X86)\MICROSOFT VISUAL STUDIO\2017\COMMUNITY\VC\TOOLS\MSVC\14.10.24911\INCLUDE\VCRUNTIME.H
C:\PROGRAM FILES (X86)\MICROSOFT VISUAL STUDIO\2017\COMMUNITY\VC\TOOLS\MSVC\14.10.24911\INCLUDE\SAL.H
C:\PROGRAM FILES (X86)\MICROSOFT VISUAL STUDIO\2017\COMMUNITY\VC\TOOLS\MSVC\14.10.24911\INCLUDE\CONCURRENCYSAL.H
C:\PROGRAM FILES (X86)\MICROSOFT VISUAL STUDIO\2017\COMMUNITY\VC\TOOLS\MSVC\14.10.24911\INCLUDE\VADEFS.H
C:\PROGRAM FILES (X86)\WINDOWS KITS\10\INCLUDE\10.0.14393.0\UCRT\CORECRT_WSTDIO.H
C:\PROGRAM FILES (X86)\WINDOWS KITS\10\INCLUDE\10.0.14393.0\UCRT\CORECRT_STDIO_CONFIG.H
C:\PROGRAM FILES (X86)\WINDOWS KITS\10\INCLUDE\10.0.14393.0\UCRT\STDLIB.H
C:\PROGRAM FILES (X86)\WINDOWS KITS\10\INCLUDE\10.0.14393.0\UCRT\CORECRT_MALLOC.H
C:\PROGRAM FILES (X86)\WINDOWS KITS\10\INCLUDE\10.0.14393.0\UCRT\CORECRT_SEARCH.H
C:\PROGRAM FILES (X86)\WINDOWS KITS\10\INCLUDE\10.0.14393.0\UCRT\STDDEF.H
C:\PROGRAM FILES (X86)\WINDOWS KITS\10\INCLUDE\10.0.14393.0\UCRT\CORECRT_WSTDLIB.H
C:\PROGRAM FILES (X86)\MICROSOFT VISUAL STUDIO\2017\COMMUNITY\VC\TOOLS\MSVC\14.10.24911\INCLUDE\LIMITS.H
C:\PROGRAM FILES (X86)\MICROSOFT VISUAL STUDIO\2017\COMMUNITY\VC\TOOLS\MSVC\14.10.24911\INCLUDE\VECTOR
C:\PROGRAM FILES (X86)\MICROSOFT VISUAL STUDIO\2017\COMMUNITY\VC\TOOLS\MSVC\14.10.24911\INCLUDE\XMEMORY
C:\PROGRAM FILES (X86)\MICROSOFT VISUAL STUDIO\2017\COMMUNITY\VC\TOOLS\MSVC\14.10.24911\INCLUDE\XMEMORY0
C:\PROGRAM FILES (X86)\MICROSOFT VISUAL STUDIO\2017\COMMUNITY\VC\TOOLS\MSVC\14.10.24911\INCLUDE\CSTDINT
C:\PROGRAM FILES (X86)\MICROSOFT VISUAL STUDIO\2017\COMMUNITY\VC\TOOLS\MSVC\14.10.24911\INCLUDE\YVALS.H
C:\PROGRAM FILES (X86)\MICROSOFT VISUAL STUDIO\2017\COMMUNITY\VC\TOOLS\MSVC\14.10.24911\INCLUDE\XKEYCHECK.H
C:\PROGRAM FILES (X86)\MICROSOFT VISUAL STUDIO\2017\COMMUNITY\VC\TOOLS\MSVC\14.10.24911\INCLUDE\CRTDEFS.H
C:\PROGRAM FILES (X86)\MICROSOFT VISUAL STUDIO\2017\COMMUNITY\VC\TOOLS\MSVC\14.10.24911\INCLUDE\USE_ANSI.H
C:\PROGRAM FILES (X86)\MICROSOFT VISUAL STUDIO\2017\COMMUNITY\VC\TOOLS\MSVC\14.10.24911\INCLUDE\STDINT.H
C:\PROGRAM FILES (X86)\MICROSOFT VISUAL STUDIO\2017\COMMUNITY\VC\TOOLS\MSVC\14.10.24911\INCLUDE\CSTDLIB
C:\PROGRAM FILES (X86)\WINDOWS KITS\10\INCLUDE\10.0.14393.0\UCRT\MATH.H
C:\PROGRAM FILES (X86)\MICROSOFT VISUAL STUDIO\2017\COMMUNITY\VC\TOOLS\MSVC\14.10.24911\INCLUDE\LIMITS
C:\PROGRAM FILES (X86)\MICROSOFT VISUAL STUDIO\2017\COMMUNITY\VC\TOOLS\MSVC\14.10.24911\INCLUDE\YMATH.H
C:\PROGRAM FILES (X86)\MICROSOFT VISUAL STUDIO\2017\COMMUNITY\VC\TOOLS\MSVC\14.10.24911\INCLUDE\CFLOAT
C:\PROGRAM FILES (X86)\WINDOWS KITS\10\INCLUDE\10.0.14393.0\UCRT\FLOAT.H
C:\PROGRAM FILES (X86)\MICROSOFT VISUAL STUDIO\2017\COMMUNITY\VC\TOOLS\MSVC\14.10.24911\INCLUDE\CLIMITS
C:\PROGRAM FILES (X86)\MICROSOFT VISUAL STUDIO\2017\COMMUNITY\VC\TOOLS\MSVC\14.10.24911\INCLUDE\CMATH
C:\PROGRAM FILES (X86)\MICROSOFT VISUAL STUDIO\2017\COMMUNITY\VC\TOOLS\MSVC\14.10.24911\INCLUDE\XTGMATH.H
C:\PROGRAM FILES (X86)\MICROSOFT VISUAL STUDIO\2017\COMMUNITY\VC\TOOLS\MSVC\14.10.24911\INCLUDE\XTR1COMMON
C:\PROGRAM FILES (X86)\MICROSOFT VISUAL STUDIO\2017\COMMUNITY\VC\TOOLS\MSVC\14.10.24911\INCLUDE\CWCHAR
C:\PROGRAM FILES (X86)\WINDOWS KITS\10\INCLUDE\10.0.14393.0\UCRT\WCHAR.H
C:\PROGRAM FILES (X86)\WINDOWS KITS\10\INCLUDE\10.0.14393.0\UCRT\CORECRT_MEMCPY_S.H
C:\PROGRAM FILES (X86)\WINDOWS KITS\10\INCLUDE\10.0.14393.0\UCRT\ERRNO.H
C:\PROGRAM FILES (X86)\MICROSOFT VISUAL STUDIO\2017\COMMUNITY\VC\TOOLS\MSVC\14.10.24911\INCLUDE\VCRUNTIME_STRING.H
C:\PROGRAM FILES (X86)\WINDOWS KITS\10\INCLUDE\10.0.14393.0\UCRT\CORECRT_WCONIO.H
C:\PROGRAM FILES (X86)\WINDOWS KITS\10\INCLUDE\10.0.14393.0\UCRT\CORECRT_WCTYPE.H
C:\PROGRAM FILES (X86)\WINDOWS KITS\10\INCLUDE\10.0.14393.0\UCRT\CORECRT_WDIRECT.H
C:\PROGRAM FILES (X86)\WINDOWS KITS\10\INCLUDE\10.0.14393.0\UCRT\CORECRT_WIO.H
C:\PROGRAM FILES (X86)\WINDOWS KITS\10\INCLUDE\10.0.14393.0\UCRT\CORECRT_SHARE.H
C:\PROGRAM FILES (X86)\WINDOWS KITS\10\INCLUDE\10.0.14393.0\UCRT\CORECRT_WPROCESS.H
C:\PROGRAM FILES (X86)\WINDOWS KITS\10\INCLUDE\10.0.14393.0\UCRT\CORECRT_WSTRING.H
C:\PROGRAM FILES (X86)\WINDOWS KITS\10\INCLUDE\10.0.14393.0\UCRT\CORECRT_WTIME.H
C:\PROGRAM FILES (X86)\WINDOWS KITS\10\INCLUDE\10.0.14393.0\UCRT\SYS\STAT.H
C:\PROGRAM FILES (X86)\WINDOWS KITS\10\INCLUDE\10.0.14393.0\UCRT\SYS\TYPES.H
C:\PROGRAM FILES (X86)\MICROSOFT VISUAL STUDIO\2017\COMMUNITY\VC\TOOLS\MSVC\14.10.24911\INCLUDE\XSTDDEF
C:\PROGRAM FILES (X86)\MICROSOFT VISUAL STUDIO\2017\COMMUNITY\VC\TOOLS\MSVC\14.10.24911\INCLUDE\CSTDDEF
C:\PROGRAM FILES (X86)\MICROSOFT VISUAL STUDIO\2017\COMMUNITY\VC\TOOLS\MSVC\14.10.24911\INCLUDE\INITIALIZER_LIST
C:\PROGRAM FILES (X86)\MICROSOFT VISUAL STUDIO\2017\COMMUNITY\VC\TOOLS\MSVC\14.10.24911\INCLUDE\NEW
C:\PROGRAM FILES (X86)\MICROSOFT VISUAL STUDIO\2017\COMMUNITY\VC\TOOLS\MSVC\14.10.24911\INCLUDE\EXCEPTION
C:\PROGRAM FILES (X86)\MICROSOFT VISUAL STUDIO\2017\COMMUNITY\VC\TOOLS\MSVC\14.10.24911\INCLUDE\TYPE_TRAITS
C:\PROGRAM FILES (X86)\WINDOWS KITS\10\INCLUDE\10.0.14393.0\UCRT\MALLOC.H
C:\PROGRAM FILES (X86)\MICROSOFT VISUAL STUDIO\2017\COMMUNITY\VC\TOOLS\MSVC\14.10.24911\INCLUDE\VCRUNTIME_EXCEPTION.H
C:\PROGRAM FILES (X86)\MICROSOFT VISUAL STUDIO\2017\COMMUNITY\VC\TOOLS\MSVC\14.10.24911\INCLUDE\EH.H
C:\PROGRAM FILES (X86)\WINDOWS KITS\10\INCLUDE\10.0.14393.0\UCRT\CORECRT_TERMINATE.H
C:\PROGRAM FILES (X86)\MICROSOFT VISUAL STUDIO\2017\COMMUNITY\VC\TOOLS\MSVC\14.10.24911\INCLUDE\VCRUNTIME_NEW.H
C:\PROGRAM FILES (X86)\MICROSOFT VISUAL STUDIO\2017\COMMUNITY\VC\TOOLS\MSVC\14.10.24911\INCLUDE\XUTILITY
C:\PROGRAM FILES (X86)\MICROSOFT VISUAL STUDIO\2017\COMMUNITY\VC\TOOLS\MSVC\14.10.24911\INCLUDE\UTILITY
C:\PROGRAM FILES (X86)\MICROSOFT VISUAL STUDIO\2017\COMMUNITY\VC\TOOLS\MSVC\14.10.24911\INCLUDE\IOSFWD
C:\PROGRAM FILES (X86)\MICROSOFT VISUAL STUDIO\2017\COMMUNITY\VC\TOOLS\MSVC\14.10.24911\INCLUDE\CSTDIO
C:\PROGRAM FILES (X86)\MICROSOFT VISUAL STUDIO\2017\COMMUNITY\VC\TOOLS\MSVC\14.10.24911\INCLUDE\CSTRING
C:\PROGRAM FILES (X86)\WINDOWS KITS\10\INCLUDE\10.0.14393.0\UCRT\STRING.H
C:\PROGRAM FILES (X86)\WINDOWS KITS\10\INCLUDE\10.0.14393.0\UCRT\CORECRT_MEMORY.H
C:\PROGRAM FILES (X86)\WINDOWS KITS\10\INCLUDE\10.0.14393.0\UCRT\CRTDBG.H
C:\PROGRAM FILES (X86)\MICROSOFT VISUAL STUDIO\2017\COMMUNITY\VC\TOOLS\MSVC\14.10.24911\INCLUDE\VCRUNTIME_NEW_DEBUG.H
C:\PROGRAM FILES (X86)\MICROSOFT VISUAL STUDIO\2017\COMMUNITY\VC\TOOLS\MSVC\14.10.24911\INCLUDE\XATOMIC0.H
C:\PROGRAM FILES (X86)\MICROSOFT VISUAL STUDIO\2017\COMMUNITY\VC\TOOLS\MSVC\14.10.24911\INCLUDE\INTRIN0.H
C:\PROGRAM FILES (X86)\MICROSOFT VISUAL STUDIO\2017\COMMUNITY\VC\TOOLS\MSVC\14.10.24911\INCLUDE\STDEXCEPT
C:\PROGRAM FILES (X86)\MICROSOFT VISUAL STUDIO\2017\COMMUNITY\VC\TOOLS\MSVC\14.10.24911\INCLUDE\XSTRING
C:\USERS\SATRI\DOCUMENTS\OPENGLTUTORIAL\EXTERNAL\GLEW-1.13.0\INCLUDE\GL\GLEW.H
C:\PROGRAM FILES (X86)\WINDOWS KITS\10\INCLUDE\10.0.14393.0\UM\GL\GLU.H
C:\PROGRAM FILES (X86)\WINDOWS KITS\10\INCLUDE\10.0.14393.0\SHARED\WINAPIFAMILY.H
C:\PROGRAM FILES (X86)\WINDOWS KITS\10\INCLUDE\10.0.14393.0\SHARED\WINPACKAGEFAMILY.H
C:\PROGRAM FILES (X86)\WINDOWS KITS\10\INCLUDE\10.0.14393.0\UM\GL\GL.H
C:\USERS\SATRI\DOCUMENTS\OPENGLTUTORIAL\EXTERNAL\GLFW-3.1.2\INCLUDE\GLFW\GLFW3.H
C:\USERS\SATRI\DOCUMENTS\OPENGLTUTORIAL\EXTERNAL\GLM-0.9.7.1\GLM\GLM.HPP
C:\USERS\SATRI\DOCUMENTS\OPENGLTUTORIAL\EXTERNAL\GLM-0.9.7.1\GLM\DETAIL\_FIXES.HPP
C:\PROGRAM FILES (X86)\MICROSOFT VISUAL STUDIO\2017\COMMUNITY\VC\TOOLS\MSVC\14.10.24911\INCLUDE\CASSERT
C:\PROGRAM FILES (X86)\WINDOWS KITS\10\INCLUDE\10.0.14393.0\UCRT\ASSERT.H
C:\USERS\SATRI\DOCUMENTS\OPENGLTUTORIAL\EXTERNAL\GLM-0.9.7.1\GLM\FWD.HPP
C:\USERS\SATRI\DOCUMENTS\OPENGLTUTORIAL\EXTERNAL\GLM-0.9.7.1\GLM\DETAIL\TYPE_INT.HPP
C:\USERS\SATRI\DOCUMENTS\OPENGLTUTORIAL\EXTERNAL\GLM-0.9.7.1\GLM\DETAIL\SETUP.HPP
C:\USERS\SATRI\DOCUMENTS\OPENGLTUTORIAL\EXTERNAL\GLM-0.9.7.1\GLM\DETAIL\TYPE_FLOAT.HPP
C:\USERS\SATRI\DOCUMENTS\OPENGLTUTORIAL\EXTERNAL\GLM-0.9.7.1\GLM\DETAIL\TYPE_VEC.HPP
C:\USERS\SATRI\DOCUMENTS\OPENGLTUTORIAL\EXTERNAL\GLM-0.9.7.1\GLM\DETAIL\PRECISION.HPP
C:\USERS\SATRI\DOCUMENTS\OPENGLTUTORIAL\EXTERNAL\GLM-0.9.7.1\GLM\DETAIL\TYPE_MAT.HPP
C:\USERS\SATRI\DOCUMENTS\OPENGLTUTORIAL\EXTERNAL\GLM-0.9.7.1\GLM\VEC2.HPP
C:\USERS\SATRI\DOCUMENTS\OPENGLTUTORIAL\EXTERNAL\GLM-0.9.7.1\GLM\DETAIL\TYPE_VEC2.HPP
C:\USERS\SATRI\DOCUMENTS\OPENGLTUTORIAL\EXTERNAL\GLM-0.9.7.1\GLM\DETAIL\TYPE_VEC2.INL
C:\USERS\SATRI\DOCUMENTS\OPENGLTUTORIAL\EXTERNAL\GLM-0.9.7.1\GLM\VEC3.HPP
C:\USERS\SATRI\DOCUMENTS\OPENGLTUTORIAL\EXTERNAL\GLM-0.9.7.1\GLM\DETAIL\TYPE_VEC3.HPP
C:\USERS\SATRI\DOCUMENTS\OPENGLTUTORIAL\EXTERNAL\GLM-0.9.7.1\GLM\DETAIL\TYPE_VEC3.INL
C:\USERS\SATRI\DOCUMENTS\OPENGLTUTORIAL\EXTERNAL\GLM-0.9.7.1\GLM\VEC4.HPP
C:\USERS\SATRI\DOCUMENTS\OPENGLTUTORIAL\EXTERNAL\GLM-0.9.7.1\GLM\DETAIL\TYPE_VEC4.HPP
C:\USERS\SATRI\DOCUMENTS\OPENGLTUTORIAL\EXTERNAL\GLM-0.9.7.1\GLM\DETAIL\TYPE_VEC4.INL
C:\USERS\SATRI\DOCUMENTS\OPENGLTUTORIAL\EXTERNAL\GLM-0.9.7.1\GLM\MAT2X2.HPP
C:\USERS\SATRI\DOCUMENTS\OPENGLTUTORIAL\EXTERNAL\GLM-0.9.7.1\GLM\DETAIL\TYPE_MAT2X2.HPP
C:\USERS\SATRI\DOCUMENTS\OPENGLTUTORIAL\EXTERNAL\GLM-0.9.7.1\GLM\DETAIL\TYPE_MAT2X2.INL
C:\USERS\SATRI\DOCUMENTS\OPENGLTUTORIAL\EXTERNAL\GLM-0.9.7.1\GLM\MAT2X3.HPP
C:\USERS\SATRI\DOCUMENTS\OPENGLTUTORIAL\EXTERNAL\GLM-0.9.7.1\GLM\DETAIL\TYPE_MAT2X3.HPP
C:\USERS\SATRI\DOCUMENTS\OPENGLTUTORIAL\EXTERNAL\GLM-0.9.7.1\GLM\DETAIL\TYPE_MAT2X3.INL
C:\USERS\SATRI\DOCUMENTS\OPENGLTUTORIAL\EXTERNAL\GLM-0.9.7.1\GLM\MAT2X4.HPP
C:\USERS\SATRI\DOCUMENTS\OPENGLTUTORIAL\EXTERNAL\GLM-0.9.7.1\GLM\DETAIL\TYPE_MAT2X4.HPP
C:\USERS\SATRI\DOCUMENTS\OPENGLTUTORIAL\EXTERNAL\GLM-0.9.7.1\GLM\DETAIL\TYPE_MAT2X4.INL
C:\USERS\SATRI\DOCUMENTS\OPENGLTUTORIAL\EXTERNAL\GLM-0.9.7.1\GLM\MAT3X2.HPP
C:\USERS\SATRI\DOCUMENTS\OPENGLTUTORIAL\EXTERNAL\GLM-0.9.7.1\GLM\DETAIL\TYPE_MAT3X2.HPP
C:\USERS\SATRI\DOCUMENTS\OPENGLTUTORIAL\EXTERNAL\GLM-0.9.7.1\GLM\DETAIL\TYPE_MAT3X2.INL
C:\USERS\SATRI\DOCUMENTS\OPENGLTUTORIAL\EXTERNAL\GLM-0.9.7.1\GLM\MAT3X3.HPP
C:\USERS\SATRI\DOCUMENTS\OPENGLTUTORIAL\EXTERNAL\GLM-0.9.7.1\GLM\DETAIL\TYPE_MAT3X3.HPP
C:\USERS\SATRI\DOCUMENTS\OPENGLTUTORIAL\EXTERNAL\GLM-0.9.7.1\GLM\DETAIL\TYPE_MAT3X3.INL
C:\USERS\SATRI\DOCUMENTS\OPENGLTUTORIAL\EXTERNAL\GLM-0.9.7.1\GLM\MAT3X4.HPP
C:\USERS\SATRI\DOCUMENTS\OPENGLTUTORIAL\EXTERNAL\GLM-0.9.7.1\GLM\DETAIL\TYPE_MAT3X4.HPP
C:\USERS\SATRI\DOCUMENTS\OPENGLTUTORIAL\EXTERNAL\GLM-0.9.7.1\GLM\DETAIL\TYPE_MAT3X4.INL
C:\USERS\SATRI\DOCUMENTS\OPENGLTUTORIAL\EXTERNAL\GLM-0.9.7.1\GLM\MAT4X2.HPP
C:\USERS\SATRI\DOCUMENTS\OPENGLTUTORIAL\EXTERNAL\GLM-0.9.7.1\GLM\DETAIL\TYPE_MAT4X2.HPP
C:\USERS\SATRI\DOCUMENTS\OPENGLTUTORIAL\EXTERNAL\GLM-0.9.7.1\GLM\DETAIL\TYPE_MAT4X2.INL
C:\USERS\SATRI\DOCUMENTS\OPENGLTUTORIAL\EXTERNAL\GLM-0.9.7.1\GLM\MAT4X3.HPP
C:\USERS\SATRI\DOCUMENTS\OPENGLTUTORIAL\EXTERNAL\GLM-0.9.7.1\GLM\DETAIL\TYPE_MAT4X3.HPP
C:\USERS\SATRI\DOCUMENTS\OPENGLTUTORIAL\EXTERNAL\GLM-0.9.7.1\GLM\DETAIL\TYPE_MAT4X3.INL
C:\USERS\SATRI\DOCUMENTS\OPENGLTUTORIAL\EXTERNAL\GLM-0.9.7.1\GLM\MAT4X4.HPP
C:\USERS\SATRI\DOCUMENTS\OPENGLTUTORIAL\EXTERNAL\GLM-0.9.7.1\GLM\DETAIL\TYPE_MAT4X4.HPP
C:\USERS\SATRI\DOCUMENTS\OPENGLTUTORIAL\EXTERNAL\GLM-0.9.7.1\GLM\DETAIL\TYPE_MAT4X4.INL
C:\USERS\SATRI\DOCUMENTS\OPENGLTUTORIAL\EXTERNAL\GLM-0.9.7.1\GLM\TRIGONOMETRIC.HPP
C:\USERS\SATRI\DOCUMENTS\OPENGLTUTORIAL\EXTERNAL\GLM-0.9.7.1\GLM\DETAIL\FUNC_TRIGONOMETRIC.HPP
C:\USERS\SATRI\DOCUMENTS\OPENGLTUTORIAL\EXTERNAL\GLM-0.9.7.1\GLM\DETAIL\FUNC_TRIGONOMETRIC.INL
C:\USERS\SATRI\DOCUMENTS\OPENGLTUTORIAL\EXTERNAL\GLM-0.9.7.1\GLM\DETAIL\_VECTORIZE.HPP
C:\USERS\SATRI\DOCUMENTS\OPENGLTUTORIAL\EXTERNAL\GLM-0.9.7.1\GLM\DETAIL\TYPE_VEC1.HPP
C:\USERS\SATRI\DOCUMENTS\OPENGLTUTORIAL\EXTERNAL\GLM-0.9.7.1\GLM\DETAIL\TYPE_VEC1.INL
C:\USERS\SATRI\DOCUMENTS\OPENGLTUTORIAL\EXTERNAL\GLM-0.9.7.1\GLM\EXPONENTIAL.HPP
C:\USERS\SATRI\DOCUMENTS\OPENGLTUTORIAL\EXTERNAL\GLM-0.9.7.1\GLM\DETAIL\FUNC_EXPONENTIAL.HPP
C:\USERS\SATRI\DOCUMENTS\OPENGLTUTORIAL\EXTERNAL\GLM-0.9.7.1\GLM\DETAIL\FUNC_EXPONENTIAL.INL
C:\USERS\SATRI\DOCUMENTS\OPENGLTUTORIAL\EXTERNAL\GLM-0.9.7.1\GLM\DETAIL\FUNC_VECTOR_RELATIONAL.HPP
C:\USERS\SATRI\DOCUMENTS\OPENGLTUTORIAL\EXTERNAL\GLM-0.9.7.1\GLM\DETAIL\FUNC_VECTOR_RELATIONAL.INL
C:\USERS\SATRI\DOCUMENTS\OPENGLTUTORIAL\EXTERNAL\GLM-0.9.7.1\GLM\COMMON.HPP
C:\USERS\SATRI\DOCUMENTS\OPENGLTUTORIAL\EXTERNAL\GLM-0.9.7.1\GLM\DETAIL\FUNC_COMMON.HPP
C:\USERS\SATRI\DOCUMENTS\OPENGLTUTORIAL\EXTERNAL\GLM-0.9.7.1\GLM\DETAIL\FUNC_COMMON.INL
C:\USERS\SATRI\DOCUMENTS\OPENGLTUTORIAL\EXTERNAL\GLM-0.9.7.1\GLM\PACKING.HPP
C:\USERS\SATRI\DOCUMENTS\OPENGLTUTORIAL\EXTERNAL\GLM-0.9.7.1\GLM\DETAIL\FUNC_PACKING.HPP
C:\USERS\SATRI\DOCUMENTS\OPENGLTUTORIAL\EXTERNAL\GLM-0.9.7.1\GLM\DETAIL\FUNC_PACKING.INL
C:\USERS\SATRI\DOCUMENTS\OPENGLTUTORIAL\EXTERNAL\GLM-0.9.7.1\GLM\DETAIL\TYPE_HALF.HPP
C:\USERS\SATRI\DOCUMENTS\OPENGLTUTORIAL\EXTERNAL\GLM-0.9.7.1\GLM\DETAIL\TYPE_HALF.INL
C:\USERS\SATRI\DOCUMENTS\OPENGLTUTORIAL\EXTERNAL\GLM-0.9.7.1\GLM\GEOMETRIC.HPP
C:\USERS\SATRI\DOCUMENTS\OPENGLTUTORIAL\EXTERNAL\GLM-0.9.7.1\GLM\DETAIL\FUNC_GEOMETRIC.HPP
C:\USERS\SATRI\DOCUMENTS\OPENGLTUTORIAL\EXTERNAL\GLM-0.9.7.1\GLM\DETAIL\FUNC_GEOMETRIC.INL
C:\USERS\SATRI\DOCUMENTS\OPENGLTUTORIAL\EXTERNAL\GLM-0.9.7.1\GLM\MATRIX.HPP
C:\USERS\SATRI\DOCUMENTS\OPENGLTUTORIAL\EXTERNAL\GLM-0.9.7.1\GLM\DETAIL\FUNC_MATRIX.HPP
C:\USERS\SATRI\DOCUMENTS\OPENGLTUTORIAL\EXTERNAL\GLM-0.9.7.1\GLM\DETAIL\FUNC_MATRIX.INL
C:\USERS\SATRI\DOCUMENTS\OPENGLTUTORIAL\EXTERNAL\GLM-0.9.7.1\GLM\VECTOR_RELATIONAL.HPP
C:\USERS\SATRI\DOCUMENTS\OPENGLTUTORIAL\EXTERNAL\GLM-0.9.7.1\GLM\INTEGER.HPP
C:\USERS\SATRI\DOCUMENTS\OPENGLTUTORIAL\EXTERNAL\GLM-0.9.7.1\GLM\DETAIL\FUNC_INTEGER.HPP
C:\USERS\SATRI\DOCUMENTS\OPENGLTUTORIAL\EXTERNAL\GLM-0.9.7.1\GLM\DETAIL\FUNC_INTEGER.INL
C:\USERS\SATRI\DOCUMENTS\OPENGLTUTORIAL\EXTERNAL\GLM-0.9.7.1\GLM\GTC\MATRIX_TRANSFORM.HPP
C:\USERS\SATRI\DOCUMENTS\OPENGLTUTORIAL\EXTERNAL\GLM-0.9.7.1\GLM\GTC\CONSTANTS.HPP
C:\USERS\SATRI\DOCUMENTS\OPENGLTUTORIAL\EXTERNAL\GLM-0.9.7.1\GLM\GTC\CONSTANTS.INL
C:\USERS\SATRI\DOCUMENTS\OPENGLTUTORIAL\EXTERNAL\GLM-0.9.7.1\GLM\GTC\MATRIX_TRANSFORM.INL
C:\USERS\SATRI\DOCUMENTS\OPENGLTUTORIAL\COMMON\SHADER.HPP
C:\USERS\SATRI\DOCUMENTS\OPENGLTUTORIAL\COMMON\TEXTURE.HPP
C:\USERS\SATRI\DOCUMENTS\OPENGLTUTORIAL\COMMON\CONTROLS.HPP
C:\USERS\SATRI\DOCUMENTS\OPENGLTUTORIAL\COMMON\OBJLOADER.HPP
C:\USERS\SATRI\DOCUMENTS\OPENGLTUTORIAL\COMMON\VBOINDEXER.HPP
^C:\USERS\SATRI\DOCUMENTS\OPENGLTUTORIAL\COMMON\CONTROLS.CPP
C:\USERS\SATRI\DOCUMENTS\OPENGLTUTORIAL\EXTERNAL\GLFW-3.1.2\INCLUDE\GLFW\GLFW3.H
C:\PROGRAM FILES (X86)\WINDOWS KITS\10\INCLUDE\10.0.14393.0\UCRT\STDDEF.H
C:\PROGRAM FILES (X86)\WINDOWS KITS\10\INCLUDE\10.0.14393.0\UCRT\CORECRT.H
C:\PROGRAM FILES (X86)\MICROSOFT VISUAL STUDIO\2017\COMMUNITY\VC\TOOLS\MSVC\14.10.24911\INCLUDE\VCRUNTIME.H
C:\PROGRAM FILES (X86)\MICROSOFT VISUAL STUDIO\2017\COMMUNITY\VC\TOOLS\MSVC\14.10.24911\INCLUDE\SAL.H
C:\PROGRAM FILES (X86)\MICROSOFT VISUAL STUDIO\2017\COMMUNITY\VC\TOOLS\MSVC\14.10.24911\INCLUDE\CONCURRENCYSAL.H
C:\PROGRAM FILES (X86)\MICROSOFT VISUAL STUDIO\2017\COMMUNITY\VC\TOOLS\MSVC\14.10.24911\INCLUDE\VADEFS.H
C:\PROGRAM FILES (X86)\WINDOWS KITS\10\INCLUDE\10.0.14393.0\UM\GL\GL.H
C:\PROGRAM FILES (X86)\WINDOWS KITS\10\INCLUDE\10.0.14393.0\SHARED\WINAPIFAMILY.H
C:\PROGRAM FILES (X86)\WINDOWS KITS\10\INCLUDE\10.0.14393.0\SHARED\WINPACKAGEFAMILY.H
C:\USERS\SATRI\DOCUMENTS\OPENGLTUTORIAL\EXTERNAL\GLM-0.9.7.1\GLM\GLM.HPP
C:\USERS\SATRI\DOCUMENTS\OPENGLTUTORIAL\EXTERNAL\GLM-0.9.7.1\GLM\DETAIL\_FIXES.HPP
C:\PROGRAM FILES (X86)\MICROSOFT VISUAL STUDIO\2017\COMMUNITY\VC\TOOLS\MSVC\14.10.24911\INCLUDE\CMATH
C:\PROGRAM FILES (X86)\MICROSOFT VISUAL STUDIO\2017\COMMUNITY\VC\TOOLS\MSVC\14.10.24911\INCLUDE\CSTDLIB
C:\PROGRAM FILES (X86)\MICROSOFT VISUAL STUDIO\2017\COMMUNITY\VC\TOOLS\MSVC\14.10.24911\INCLUDE\YVALS.H
C:\PROGRAM FILES (X86)\MICROSOFT VISUAL STUDIO\2017\COMMUNITY\VC\TOOLS\MSVC\14.10.24911\INCLUDE\XKEYCHECK.H
C:\PROGRAM FILES (X86)\MICROSOFT VISUAL STUDIO\2017\COMMUNITY\VC\TOOLS\MSVC\14.10.24911\INCLUDE\CRTDEFS.H
C:\PROGRAM FILES (X86)\MICROSOFT VISUAL STUDIO\2017\COMMUNITY\VC\TOOLS\MSVC\14.10.24911\INCLUDE\USE_ANSI.H
C:\PROGRAM FILES (X86)\WINDOWS KITS\10\INCLUDE\10.0.14393.0\UCRT\STDLIB.H
C:\PROGRAM FILES (X86)\WINDOWS KITS\10\INCLUDE\10.0.14393.0\UCRT\CORECRT_MALLOC.H
C:\PROGRAM FILES (X86)\WINDOWS KITS\10\INCLUDE\10.0.14393.0\UCRT\CORECRT_SEARCH.H
C:\PROGRAM FILES (X86)\WINDOWS KITS\10\INCLUDE\10.0.14393.0\UCRT\CORECRT_WSTDLIB.H
C:\PROGRAM FILES (X86)\MICROSOFT VISUAL STUDIO\2017\COMMUNITY\VC\TOOLS\MSVC\14.10.24911\INCLUDE\LIMITS.H
C:\PROGRAM FILES (X86)\WINDOWS KITS\10\INCLUDE\10.0.14393.0\UCRT\MATH.H
C:\PROGRAM FILES (X86)\MICROSOFT VISUAL STUDIO\2017\COMMUNITY\VC\TOOLS\MSVC\14.10.24911\INCLUDE\XTGMATH.H
C:\PROGRAM FILES (X86)\MICROSOFT VISUAL STUDIO\2017\COMMUNITY\VC\TOOLS\MSVC\14.10.24911\INCLUDE\XTR1COMMON
C:\PROGRAM FILES (X86)\MICROSOFT VISUAL STUDIO\2017\COMMUNITY\VC\TOOLS\MSVC\14.10.24911\INCLUDE\CLIMITS
C:\PROGRAM FILES (X86)\MICROSOFT VISUAL STUDIO\2017\COMMUNITY\VC\TOOLS\MSVC\14.10.24911\INCLUDE\CFLOAT
C:\PROGRAM FILES (X86)\WINDOWS KITS\10\INCLUDE\10.0.14393.0\UCRT\FLOAT.H
C:\PROGRAM FILES (X86)\MICROSOFT VISUAL STUDIO\2017\COMMUNITY\VC\TOOLS\MSVC\14.10.24911\INCLUDE\LIMITS
C:\PROGRAM FILES (X86)\MICROSOFT VISUAL STUDIO\2017\COMMUNITY\VC\TOOLS\MSVC\14.10.24911\INCLUDE\YMATH.H
C:\PROGRAM FILES (X86)\MICROSOFT VISUAL STUDIO\2017\COMMUNITY\VC\TOOLS\MSVC\14.10.24911\INCLUDE\CWCHAR
C:\PROGRAM FILES (X86)\WINDOWS KITS\10\INCLUDE\10.0.14393.0\UCRT\WCHAR.H
C:\PROGRAM FILES (X86)\WINDOWS KITS\10\INCLUDE\10.0.14393.0\UCRT\CORECRT_MEMCPY_S.H
C:\PROGRAM FILES (X86)\WINDOWS KITS\10\INCLUDE\10.0.14393.0\UCRT\ERRNO.H
C:\PROGRAM FILES (X86)\MICROSOFT VISUAL STUDIO\2017\COMMUNITY\VC\TOOLS\MSVC\14.10.24911\INCLUDE\VCRUNTIME_STRING.H
C:\PROGRAM FILES (X86)\WINDOWS KITS\10\INCLUDE\10.0.14393.0\UCRT\CORECRT_WCONIO.H
C:\PROGRAM FILES (X86)\WINDOWS KITS\10\INCLUDE\10.0.14393.0\UCRT\CORECRT_STDIO_CONFIG.H
C:\PROGRAM FILES (X86)\WINDOWS KITS\10\INCLUDE\10.0.14393.0\UCRT\CORECRT_WCTYPE.H
C:\PROGRAM FILES (X86)\WINDOWS KITS\10\INCLUDE\10.0.14393.0\UCRT\CORECRT_WDIRECT.H
C:\PROGRAM FILES (X86)\WINDOWS KITS\10\INCLUDE\10.0.14393.0\UCRT\CORECRT_WIO.H
C:\PROGRAM FILES (X86)\WINDOWS KITS\10\INCLUDE\10.0.14393.0\UCRT\CORECRT_SHARE.H
C:\PROGRAM FILES (X86)\WINDOWS KITS\10\INCLUDE\10.0.14393.0\UCRT\CORECRT_WPROCESS.H
C:\PROGRAM FILES (X86)\WINDOWS KITS\10\INCLUDE\10.0.14393.0\UCRT\CORECRT_WSTDIO.H
C:\PROGRAM FILES (X86)\WINDOWS KITS\10\INCLUDE\10.0.14393.0\UCRT\CORECRT_WSTRING.H
C:\PROGRAM FILES (X86)\WINDOWS KITS\10\INCLUDE\10.0.14393.0\UCRT\CORECRT_WTIME.H
C:\PROGRAM FILES (X86)\WINDOWS KITS\10\INCLUDE\10.0.14393.0\UCRT\SYS\STAT.H
C:\PROGRAM FILES (X86)\WINDOWS KITS\10\INCLUDE\10.0.14393.0\UCRT\SYS\TYPES.H
C:\PROGRAM FILES (X86)\MICROSOFT VISUAL STUDIO\2017\COMMUNITY\VC\TOOLS\MSVC\14.10.24911\INCLUDE\XSTDDEF
C:\PROGRAM FILES (X86)\MICROSOFT VISUAL STUDIO\2017\COMMUNITY\VC\TOOLS\MSVC\14.10.24911\INCLUDE\CSTDDEF
C:\PROGRAM FILES (X86)\MICROSOFT VISUAL STUDIO\2017\COMMUNITY\VC\TOOLS\MSVC\14.10.24911\INCLUDE\INITIALIZER_LIST
C:\PROGRAM FILES (X86)\MICROSOFT VISUAL STUDIO\2017\COMMUNITY\VC\TOOLS\MSVC\14.10.24911\INCLUDE\CASSERT
C:\PROGRAM FILES (X86)\WINDOWS KITS\10\INCLUDE\10.0.14393.0\UCRT\ASSERT.H
C:\USERS\SATRI\DOCUMENTS\OPENGLTUTORIAL\EXTERNAL\GLM-0.9.7.1\GLM\FWD.HPP
C:\USERS\SATRI\DOCUMENTS\OPENGLTUTORIAL\EXTERNAL\GLM-0.9.7.1\GLM\DETAIL\TYPE_INT.HPP
C:\USERS\SATRI\DOCUMENTS\OPENGLTUTORIAL\EXTERNAL\GLM-0.9.7.1\GLM\DETAIL\SETUP.HPP
C:\PROGRAM FILES (X86)\MICROSOFT VISUAL STUDIO\2017\COMMUNITY\VC\TOOLS\MSVC\14.10.24911\INCLUDE\TYPE_TRAITS
C:\PROGRAM FILES (X86)\MICROSOFT VISUAL STUDIO\2017\COMMUNITY\VC\TOOLS\MSVC\14.10.24911\INCLUDE\CSTDINT
C:\PROGRAM FILES (X86)\MICROSOFT VISUAL STUDIO\2017\COMMUNITY\VC\TOOLS\MSVC\14.10.24911\INCLUDE\STDINT.H
C:\USERS\SATRI\DOCUMENTS\OPENGLTUTORIAL\EXTERNAL\GLM-0.9.7.1\GLM\DETAIL\TYPE_FLOAT.HPP
C:\USERS\SATRI\DOCUMENTS\OPENGLTUTORIAL\EXTERNAL\GLM-0.9.7.1\GLM\DETAIL\TYPE_VEC.HPP
C:\USERS\SATRI\DOCUMENTS\OPENGLTUTORIAL\EXTERNAL\GLM-0.9.7.1\GLM\DETAIL\PRECISION.HPP
C:\USERS\SATRI\DOCUMENTS\OPENGLTUTORIAL\EXTERNAL\GLM-0.9.7.1\GLM\DETAIL\TYPE_MAT.HPP
C:\USERS\SATRI\DOCUMENTS\OPENGLTUTORIAL\EXTERNAL\GLM-0.9.7.1\GLM\VEC2.HPP
C:\USERS\SATRI\DOCUMENTS\OPENGLTUTORIAL\EXTERNAL\GLM-0.9.7.1\GLM\DETAIL\TYPE_VEC2.HPP
C:\USERS\SATRI\DOCUMENTS\OPENGLTUTORIAL\EXTERNAL\GLM-0.9.7.1\GLM\DETAIL\TYPE_VEC2.INL
C:\USERS\SATRI\DOCUMENTS\OPENGLTUTORIAL\EXTERNAL\GLM-0.9.7.1\GLM\VEC3.HPP
C:\USERS\SATRI\DOCUMENTS\OPENGLTUTORIAL\EXTERNAL\GLM-0.9.7.1\GLM\DETAIL\TYPE_VEC3.HPP
C:\USERS\SATRI\DOCUMENTS\OPENGLTUTORIAL\EXTERNAL\GLM-0.9.7.1\GLM\DETAIL\TYPE_VEC3.INL
C:\USERS\SATRI\DOCUMENTS\OPENGLTUTORIAL\EXTERNAL\GLM-0.9.7.1\GLM\VEC4.HPP
C:\USERS\SATRI\DOCUMENTS\OPENGLTUTORIAL\EXTERNAL\GLM-0.9.7.1\GLM\DETAIL\TYPE_VEC4.HPP
C:\USERS\SATRI\DOCUMENTS\OPENGLTUTORIAL\EXTERNAL\GLM-0.9.7.1\GLM\DETAIL\TYPE_VEC4.INL
C:\USERS\SATRI\DOCUMENTS\OPENGLTUTORIAL\EXTERNAL\GLM-0.9.7.1\GLM\MAT2X2.HPP
C:\USERS\SATRI\DOCUMENTS\OPENGLTUTORIAL\EXTERNAL\GLM-0.9.7.1\GLM\DETAIL\TYPE_MAT2X2.HPP
C:\USERS\SATRI\DOCUMENTS\OPENGLTUTORIAL\EXTERNAL\GLM-0.9.7.1\GLM\DETAIL\TYPE_MAT2X2.INL
C:\USERS\SATRI\DOCUMENTS\OPENGLTUTORIAL\EXTERNAL\GLM-0.9.7.1\GLM\MAT2X3.HPP
C:\USERS\SATRI\DOCUMENTS\OPENGLTUTORIAL\EXTERNAL\GLM-0.9.7.1\GLM\DETAIL\TYPE_MAT2X3.HPP
C:\USERS\SATRI\DOCUMENTS\OPENGLTUTORIAL\EXTERNAL\GLM-0.9.7.1\GLM\DETAIL\TYPE_MAT2X3.INL
C:\USERS\SATRI\DOCUMENTS\OPENGLTUTORIAL\EXTERNAL\GLM-0.9.7.1\GLM\MAT2X4.HPP
C:\USERS\SATRI\DOCUMENTS\OPENGLTUTORIAL\EXTERNAL\GLM-0.9.7.1\GLM\DETAIL\TYPE_MAT2X4.HPP
C:\USERS\SATRI\DOCUMENTS\OPENGLTUTORIAL\EXTERNAL\GLM-0.9.7.1\GLM\DETAIL\TYPE_MAT2X4.INL
C:\USERS\SATRI\DOCUMENTS\OPENGLTUTORIAL\EXTERNAL\GLM-0.9.7.1\GLM\MAT3X2.HPP
C:\USERS\SATRI\DOCUMENTS\OPENGLTUTORIAL\EXTERNAL\GLM-0.9.7.1\GLM\DETAIL\TYPE_MAT3X2.HPP
C:\USERS\SATRI\DOCUMENTS\OPENGLTUTORIAL\EXTERNAL\GLM-0.9.7.1\GLM\DETAIL\TYPE_MAT3X2.INL
C:\USERS\SATRI\DOCUMENTS\OPENGLTUTORIAL\EXTERNAL\GLM-0.9.7.1\GLM\MAT3X3.HPP
C:\USERS\SATRI\DOCUMENTS\OPENGLTUTORIAL\EXTERNAL\GLM-0.9.7.1\GLM\DETAIL\TYPE_MAT3X3.HPP
C:\USERS\SATRI\DOCUMENTS\OPENGLTUTORIAL\EXTERNAL\GLM-0.9.7.1\GLM\DETAIL\TYPE_MAT3X3.INL
C:\USERS\SATRI\DOCUMENTS\OPENGLTUTORIAL\EXTERNAL\GLM-0.9.7.1\GLM\MAT3X4.HPP
C:\USERS\SATRI\DOCUMENTS\OPENGLTUTORIAL\EXTERNAL\GLM-0.9.7.1\GLM\DETAIL\TYPE_MAT3X4.HPP
C:\USERS\SATRI\DOCUMENTS\OPENGLTUTORIAL\EXTERNAL\GLM-0.9.7.1\GLM\DETAIL\TYPE_MAT3X4.INL
C:\USERS\SATRI\DOCUMENTS\OPENGLTUTORIAL\EXTERNAL\GLM-0.9.7.1\GLM\MAT4X2.HPP
C:\USERS\SATRI\DOCUMENTS\OPENGLTUTORIAL\EXTERNAL\GLM-0.9.7.1\GLM\DETAIL\TYPE_MAT4X2.HPP
C:\USERS\SATRI\DOCUMENTS\OPENGLTUTORIAL\EXTERNAL\GLM-0.9.7.1\GLM\DETAIL\TYPE_MAT4X2.INL
C:\USERS\SATRI\DOCUMENTS\OPENGLTUTORIAL\EXTERNAL\GLM-0.9.7.1\GLM\MAT4X3.HPP
C:\USERS\SATRI\DOCUMENTS\OPENGLTUTORIAL\EXTERNAL\GLM-0.9.7.1\GLM\DETAIL\TYPE_MAT4X3.HPP
C:\USERS\SATRI\DOCUMENTS\OPENGLTUTORIAL\EXTERNAL\GLM-0.9.7.1\GLM\DETAIL\TYPE_MAT4X3.INL
C:\USERS\SATRI\DOCUMENTS\OPENGLTUTORIAL\EXTERNAL\GLM-0.9.7.1\GLM\MAT4X4.HPP
C:\USERS\SATRI\DOCUMENTS\OPENGLTUTORIAL\EXTERNAL\GLM-0.9.7.1\GLM\DETAIL\TYPE_MAT4X4.HPP
C:\USERS\SATRI\DOCUMENTS\OPENGLTUTORIAL\EXTERNAL\GLM-0.9.7.1\GLM\DETAIL\TYPE_MAT4X4.INL
C:\USERS\SATRI\DOCUMENTS\OPENGLTUTORIAL\EXTERNAL\GLM-0.9.7.1\GLM\TRIGONOMETRIC.HPP
C:\USERS\SATRI\DOCUMENTS\OPENGLTUTORIAL\EXTERNAL\GLM-0.9.7.1\GLM\DETAIL\FUNC_TRIGONOMETRIC.HPP
C:\USERS\SATRI\DOCUMENTS\OPENGLTUTORIAL\EXTERNAL\GLM-0.9.7.1\GLM\DETAIL\FUNC_TRIGONOMETRIC.INL
C:\USERS\SATRI\DOCUMENTS\OPENGLTUTORIAL\EXTERNAL\GLM-0.9.7.1\GLM\DETAIL\_VECTORIZE.HPP
C:\USERS\SATRI\DOCUMENTS\OPENGLTUTORIAL\EXTERNAL\GLM-0.9.7.1\GLM\DETAIL\TYPE_VEC1.HPP
C:\USERS\SATRI\DOCUMENTS\OPENGLTUTORIAL\EXTERNAL\GLM-0.9.7.1\GLM\DETAIL\TYPE_VEC1.INL
C:\USERS\SATRI\DOCUMENTS\OPENGLTUTORIAL\EXTERNAL\GLM-0.9.7.1\GLM\EXPONENTIAL.HPP
C:\USERS\SATRI\DOCUMENTS\OPENGLTUTORIAL\EXTERNAL\GLM-0.9.7.1\GLM\DETAIL\FUNC_EXPONENTIAL.HPP
C:\USERS\SATRI\DOCUMENTS\OPENGLTUTORIAL\EXTERNAL\GLM-0.9.7.1\GLM\DETAIL\FUNC_EXPONENTIAL.INL
C:\USERS\SATRI\DOCUMENTS\OPENGLTUTORIAL\EXTERNAL\GLM-0.9.7.1\GLM\DETAIL\FUNC_VECTOR_RELATIONAL.HPP
C:\USERS\SATRI\DOCUMENTS\OPENGLTUTORIAL\EXTERNAL\GLM-0.9.7.1\GLM\DETAIL\FUNC_VECTOR_RELATIONAL.INL
C:\USERS\SATRI\DOCUMENTS\OPENGLTUTORIAL\EXTERNAL\GLM-0.9.7.1\GLM\COMMON.HPP
C:\USERS\SATRI\DOCUMENTS\OPENGLTUTORIAL\EXTERNAL\GLM-0.9.7.1\GLM\DETAIL\FUNC_COMMON.HPP
C:\USERS\SATRI\DOCUMENTS\OPENGLTUTORIAL\EXTERNAL\GLM-0.9.7.1\GLM\DETAIL\FUNC_COMMON.INL
C:\USERS\SATRI\DOCUMENTS\OPENGLTUTORIAL\EXTERNAL\GLM-0.9.7.1\GLM\PACKING.HPP
C:\USERS\SATRI\DOCUMENTS\OPENGLTUTORIAL\EXTERNAL\GLM-0.9.7.1\GLM\DETAIL\FUNC_PACKING.HPP
C:\USERS\SATRI\DOCUMENTS\OPENGLTUTORIAL\EXTERNAL\GLM-0.9.7.1\GLM\DETAIL\FUNC_PACKING.INL
C:\USERS\SATRI\DOCUMENTS\OPENGLTUTORIAL\EXTERNAL\GLM-0.9.7.1\GLM\DETAIL\TYPE_HALF.HPP
C:\USERS\SATRI\DOCUMENTS\OPENGLTUTORIAL\EXTERNAL\GLM-0.9.7.1\GLM\DETAIL\TYPE_HALF.INL
C:\USERS\SATRI\DOCUMENTS\OPENGLTUTORIAL\EXTERNAL\GLM-0.9.7.1\GLM\GEOMETRIC.HPP
C:\USERS\SATRI\DOCUMENTS\OPENGLTUTORIAL\EXTERNAL\GLM-0.9.7.1\GLM\DETAIL\FUNC_GEOMETRIC.HPP
C:\USERS\SATRI\DOCUMENTS\OPENGLTUTORIAL\EXTERNAL\GLM-0.9.7.1\GLM\DETAIL\FUNC_GEOMETRIC.INL
C:\USERS\SATRI\DOCUMENTS\OPENGLTUTORIAL\EXTERNAL\GLM-0.9.7.1\GLM\MATRIX.HPP
C:\USERS\SATRI\DOCUMENTS\OPENGLTUTORIAL\EXTERNAL\GLM-0.9.7.1\GLM\DETAIL\FUNC_MATRIX.HPP
C:\USERS\SATRI\DOCUMENTS\OPENGLTUTORIAL\EXTERNAL\GLM-0.9.7.1\GLM\DETAIL\FUNC_MATRIX.INL
C:\USERS\SATRI\DOCUMENTS\OPENGLTUTORIAL\EXTERNAL\GLM-0.9.7.1\GLM\VECTOR_RELATIONAL.HPP
C:\USERS\SATRI\DOCUMENTS\OPENGLTUTORIAL\EXTERNAL\GLM-0.9.7.1\GLM\INTEGER.HPP
C:\USERS\SATRI\DOCUMENTS\OPENGLTUTORIAL\EXTERNAL\GLM-0.9.7.1\GLM\DETAIL\FUNC_INTEGER.HPP
C:\USERS\SATRI\DOCUMENTS\OPENGLTUTORIAL\EXTERNAL\GLM-0.9.7.1\GLM\DETAIL\FUNC_INTEGER.INL
C:\USERS\SATRI\DOCUMENTS\OPENGLTUTORIAL\EXTERNAL\GLM-0.9.7.1\GLM\GTC\MATRIX_TRANSFORM.HPP
C:\USERS\SATRI\DOCUMENTS\OPENGLTUTORIAL\EXTERNAL\GLM-0.9.7.1\GLM\GTC\CONSTANTS.HPP
C:\USERS\SATRI\DOCUMENTS\OPENGLTUTORIAL\EXTERNAL\GLM-0.9.7.1\GLM\GTC\CONSTANTS.INL
C:\USERS\SATRI\DOCUMENTS\OPENGLTUTORIAL\EXTERNAL\GLM-0.9.7.1\GLM\GTC\MATRIX_TRANSFORM.INL
C:\USERS\SATRI\DOCUMENTS\OPENGLTUTORIAL\COMMON\CONTROLS.HPP
^C:\USERS\SATRI\DOCUMENTS\OPENGLTUTORIAL\COMMON\TEXTURE.CPP
C:\PROGRAM FILES (X86)\WINDOWS KITS\10\INCLUDE\10.0.14393.0\UCRT\STDIO.H
C:\PROGRAM FILES (X86)\WINDOWS KITS\10\INCLUDE\10.0.14393.0\UCRT\CORECRT.H
C:\PROGRAM FILES (X86)\MICROSOFT VISUAL STUDIO\2017\COMMUNITY\VC\TOOLS\MSVC\14.10.24911\INCLUDE\VCRUNTIME.H
C:\PROGRAM FILES (X86)\MICROSOFT VISUAL STUDIO\2017\COMMUNITY\VC\TOOLS\MSVC\14.10.24911\INCLUDE\SAL.H
C:\PROGRAM FILES (X86)\MICROSOFT VISUAL STUDIO\2017\COMMUNITY\VC\TOOLS\MSVC\14.10.24911\INCLUDE\CONCURRENCYSAL.H
C:\PROGRAM FILES (X86)\MICROSOFT VISUAL STUDIO\2017\COMMUNITY\VC\TOOLS\MSVC\14.10.24911\INCLUDE\VADEFS.H
C:\PROGRAM FILES (X86)\WINDOWS KITS\10\INCLUDE\10.0.14393.0\UCRT\CORECRT_WSTDIO.H
C:\PROGRAM FILES (X86)\WINDOWS KITS\10\INCLUDE\10.0.14393.0\UCRT\CORECRT_STDIO_CONFIG.H
C:\PROGRAM FILES (X86)\WINDOWS KITS\10\INCLUDE\10.0.14393.0\UCRT\STDLIB.H
C:\PROGRAM FILES (X86)\WINDOWS KITS\10\INCLUDE\10.0.14393.0\UCRT\CORECRT_MALLOC.H
C:\PROGRAM FILES (X86)\WINDOWS KITS\10\INCLUDE\10.0.14393.0\UCRT\CORECRT_SEARCH.H
C:\PROGRAM FILES (X86)\WINDOWS KITS\10\INCLUDE\10.0.14393.0\UCRT\STDDEF.H
C:\PROGRAM FILES (X86)\WINDOWS KITS\10\INCLUDE\10.0.14393.0\UCRT\CORECRT_WSTDLIB.H
C:\PROGRAM FILES (X86)\MICROSOFT VISUAL STUDIO\2017\COMMUNITY\VC\TOOLS\MSVC\14.10.24911\INCLUDE\LIMITS.H
C:\PROGRAM FILES (X86)\WINDOWS KITS\10\INCLUDE\10.0.14393.0\UCRT\STRING.H
C:\PROGRAM FILES (X86)\WINDOWS KITS\10\INCLUDE\10.0.14393.0\UCRT\CORECRT_MEMORY.H
C:\PROGRAM FILES (X86)\WINDOWS KITS\10\INCLUDE\10.0.14393.0\UCRT\CORECRT_MEMCPY_S.H
C:\PROGRAM FILES (X86)\WINDOWS KITS\10\INCLUDE\10.0.14393.0\UCRT\ERRNO.H
C:\PROGRAM FILES (X86)\MICROSOFT VISUAL STUDIO\2017\COMMUNITY\VC\TOOLS\MSVC\14.10.24911\INCLUDE\VCRUNTIME_STRING.H
C:\PROGRAM FILES (X86)\WINDOWS KITS\10\INCLUDE\10.0.14393.0\UCRT\CORECRT_WSTRING.H
C:\USERS\SATRI\DOCUMENTS\OPENGLTUTORIAL\EXTERNAL\GLEW-1.13.0\INCLUDE\GL\GLEW.H
C:\PROGRAM FILES (X86)\WINDOWS KITS\10\INCLUDE\10.0.14393.0\UM\GL\GLU.H
C:\PROGRAM FILES (X86)\WINDOWS KITS\10\INCLUDE\10.0.14393.0\SHARED\WINAPIFAMILY.H
C:\PROGRAM FILES (X86)\WINDOWS KITS\10\INCLUDE\10.0.14393.0\SHARED\WINPACKAGEFAMILY.H
C:\PROGRAM FILES (X86)\WINDOWS KITS\10\INCLUDE\10.0.14393.0\UM\GL\GL.H
C:\USERS\SATRI\DOCUMENTS\OPENGLTUTORIAL\EXTERNAL\GLFW-3.1.2\INCLUDE\GLFW\GLFW3.H
