﻿  Building Custom Rule C:/Users/satri/Documents/OpenGLTutorial/CMakeLists.txt
  CMake does not need to re-run because C:\Users\satri\Documents\OpenGLTutorial\VS2017\CMakeFiles\generate.stamp is up-to-date.
  tutorial16_SimpleVersion.cpp
  shader.cpp
  controls.cpp
  texture.cpp
  objloader.cpp
  vboindexer.cpp
C:\Users\satri\Documents\OpenGLTutorial\tutorial16_shadowmaps\tutorial16_SimpleVersion.cpp(232): warning C4267: 'argument': conversion from 'size_t' to 'GLsizei', possible loss of data
C:\Users\satri\Documents\OpenGLTutorial\tutorial16_shadowmaps\tutorial16_SimpleVersion.cpp(328): warning C4267: 'argument': conversion from 'size_t' to 'GLsizei', possible loss of data
  tutorial16_shadowmaps_simple.vcxproj -> C:\Users\satri\Documents\OpenGLTutorial\VS2017\Debug\tutorial16_shadowmaps_simple.exe
