#Command:  
C:\USERS\SATRI\APPDATA\LOCAL\MICROSOFT\WINDOWS\INETCACHE\COUNTERS.DAT
C:\USERS\SATRI\APPDATA\LOCAL\MICROSOFT\WINDOWS\INETCACHE\IE\F3YFA70Y\DYNTELCONFIG[1].CACHE
C:\WINDOWS\ASSEMBLY\NATIVEIMAGES_V4.0.30319_32\SYSTEM.RUNTIME\C222377567372F3384A612B0437C9D06\SYSTEM.RUNTIME.NI.DLL
C:\WINDOWS\ASSEMBLY\NATIVEIMAGES_V4.0.30319_32\SYSTEM.RUNTIME\C222377567372F3384A612B0437C9D06\SYSTEM.RUNTIME.NI.DLL.AUX
C:\WINDOWS\ASSEMBLY\NATIVEIMAGES_V4.0.30319_32\SYSTEM.COLLECTIONS\A7752EEF442066DBB01E8CF5D315913B\SYSTEM.COLLECTIONS.NI.DLL
C:\WINDOWS\ASSEMBLY\NATIVEIMAGES_V4.0.30319_32\SYSTEM.COLLECTIONS\A7752EEF442066DBB01E8CF5D315913B\SYSTEM.COLLECTIONS.NI.DLL.AUX
C:\WINDOWS\ASSEMBLY\NATIVEIMAGES_V4.0.30319_32\SYSTEM.REFLECTION\4AD7045D83079E335A786BB21011E9ED\SYSTEM.REFLECTION.NI.DLL
C:\WINDOWS\ASSEMBLY\NATIVEIMAGES_V4.0.30319_32\SYSTEM.REFLECTION\4AD7045D83079E335A786BB21011E9ED\SYSTEM.REFLECTION.NI.DLL.AUX
