info face="Arial" size=100 bold=0 italic=0 charset="" unicode=1 stretchH=100 smooth=1 aa=1 padding=2,2,2,2 spacing=1,1 outline=0
common lineHeight=100 base=80 scaleW=1024 scaleH=1024 pages=1 packed=0 alphaChnl=1 redChnl=0 greenChnl=0 blueChnl=0
page id=0 file="arial_0.dds"
chars count=169
char id=32   x=692   y=840   width=29    height=104   xoffset=-2    yoffset=-2    xadvance=25    page=0  chnl=15
char id=33   x=383   y=840   width=32    height=104   xoffset=-2    yoffset=-2    xadvance=28    page=0  chnl=15
char id=34   x=0     y=840   width=36    height=104   xoffset=-2    yoffset=-2    xadvance=32    page=0  chnl=15
char id=35   x=631   y=420   width=54    height=104   xoffset=-2    yoffset=-2    xadvance=50    page=0  chnl=15
char id=36   x=810   y=525   width=53    height=104   xoffset=-2    yoffset=-2    xadvance=49    page=0  chnl=15
char id=37   x=367   y=0     width=83    height=104   xoffset=-2    yoffset=-2    xadvance=79    page=0  chnl=15
char id=38   x=0     y=315   width=63    height=104   xoffset=-2    yoffset=-2    xadvance=59    page=0  chnl=15
char id=39   x=982   y=840   width=21    height=104   xoffset=-2    yoffset=-2    xadvance=17    page=0  chnl=15
char id=40   x=212   y=840   width=34    height=104   xoffset=-2    yoffset=-2    xadvance=30    page=0  chnl=15
char id=41   x=177   y=840   width=34    height=104   xoffset=-2    yoffset=-2    xadvance=30    page=0  chnl=15
char id=42   x=919   y=735   width=39    height=104   xoffset=-2    yoffset=-2    xadvance=35    page=0  chnl=15
char id=43   x=404   y=420   width=56    height=104   xoffset=-2    yoffset=-2    xadvance=52    page=0  chnl=15
char id=44   x=842   y=840   width=29    height=104   xoffset=-2    yoffset=-2    xadvance=25    page=0  chnl=15
char id=45   x=142   y=840   width=34    height=104   xoffset=-2    yoffset=-2    xadvance=30    page=0  chnl=15
char id=46   x=542   y=840   width=29    height=104   xoffset=-2    yoffset=-2    xadvance=25    page=0  chnl=15
char id=47   x=416   y=840   width=31    height=104   xoffset=-2    yoffset=-2    xadvance=27    page=0  chnl=15
char id=48   x=864   y=525   width=53    height=104   xoffset=-2    yoffset=-2    xadvance=49    page=0  chnl=15
char id=49   x=918   y=525   width=53    height=104   xoffset=-2    yoffset=-2    xadvance=49    page=0  chnl=15
char id=50   x=0     y=630   width=53    height=104   xoffset=-2    yoffset=-2    xadvance=49    page=0  chnl=15
char id=51   x=54    y=630   width=53    height=104   xoffset=-2    yoffset=-2    xadvance=49    page=0  chnl=15
char id=52   x=432   y=630   width=53    height=104   xoffset=-2    yoffset=-2    xadvance=49    page=0  chnl=15
char id=53   x=756   y=525   width=53    height=104   xoffset=-2    yoffset=-2    xadvance=49    page=0  chnl=15
char id=54   x=108   y=735   width=53    height=104   xoffset=-2    yoffset=-2    xadvance=49    page=0  chnl=15
char id=55   x=686   y=420   width=53    height=104   xoffset=-2    yoffset=-2    xadvance=49    page=0  chnl=15
char id=56   x=740   y=420   width=53    height=104   xoffset=-2    yoffset=-2    xadvance=49    page=0  chnl=15
char id=57   x=794   y=420   width=53    height=104   xoffset=-2    yoffset=-2    xadvance=49    page=0  chnl=15
char id=58   x=782   y=840   width=29    height=104   xoffset=-2    yoffset=-2    xadvance=25    page=0  chnl=15
char id=59   x=752   y=840   width=29    height=104   xoffset=-2    yoffset=-2    xadvance=25    page=0  chnl=15
char id=60   x=347   y=420   width=56    height=104   xoffset=-2    yoffset=-2    xadvance=52    page=0  chnl=15
char id=61   x=176   y=420   width=56    height=104   xoffset=-2    yoffset=-2    xadvance=52    page=0  chnl=15
char id=62   x=233   y=420   width=56    height=104   xoffset=-2    yoffset=-2    xadvance=52    page=0  chnl=15
char id=63   x=848   y=420   width=53    height=104   xoffset=-2    yoffset=-2    xadvance=49    page=0  chnl=15
char id=64   x=0     y=0     width=94    height=104   xoffset=-2    yoffset=-2    xadvance=90    page=0  chnl=15
char id=65   x=674   y=210   width=65    height=104   xoffset=-2    yoffset=-2    xadvance=61    page=0  chnl=15
char id=66   x=256   y=315   width=63    height=104   xoffset=-2    yoffset=-2    xadvance=59    page=0  chnl=15
char id=67   x=783   y=105   width=68    height=104   xoffset=-2    yoffset=-2    xadvance=64    page=0  chnl=15
char id=68   x=714   y=105   width=68    height=104   xoffset=-2    yoffset=-2    xadvance=64    page=0  chnl=15
char id=69   x=320   y=315   width=63    height=104   xoffset=-2    yoffset=-2    xadvance=59    page=0  chnl=15
char id=70   x=767   y=315   width=58    height=104   xoffset=-2    yoffset=-2    xadvance=54    page=0  chnl=15
char id=71   x=0     y=105   width=73    height=104   xoffset=-2    yoffset=-2    xadvance=69    page=0  chnl=15
char id=72   x=576   y=105   width=68    height=104   xoffset=-2    yoffset=-2    xadvance=64    page=0  chnl=15
char id=73   x=902   y=840   width=29    height=104   xoffset=-2    yoffset=-2    xadvance=25    page=0  chnl=15
char id=74   x=682   y=735   width=49    height=104   xoffset=-2    yoffset=-2    xadvance=45    page=0  chnl=15
char id=75   x=640   y=315   width=63    height=104   xoffset=-2    yoffset=-2    xadvance=59    page=0  chnl=15
char id=76   x=902   y=420   width=53    height=104   xoffset=-2    yoffset=-2    xadvance=49    page=0  chnl=15
char id=77   x=530   y=0     width=77    height=104   xoffset=-2    yoffset=-2    xadvance=73    page=0  chnl=15
char id=78   x=507   y=105   width=68    height=104   xoffset=-2    yoffset=-2    xadvance=64    page=0  chnl=15
char id=79   x=830   y=0     width=73    height=104   xoffset=-2    yoffset=-2    xadvance=69    page=0  chnl=15
char id=80   x=871   y=210   width=63    height=104   xoffset=-2    yoffset=-2    xadvance=59    page=0  chnl=15
char id=81   x=222   y=105   width=73    height=104   xoffset=-2    yoffset=-2    xadvance=69    page=0  chnl=15
char id=82   x=438   y=105   width=68    height=104   xoffset=-2    yoffset=-2    xadvance=64    page=0  chnl=15
char id=83   x=935   y=210   width=63    height=104   xoffset=-2    yoffset=-2    xadvance=59    page=0  chnl=15
char id=84   x=885   y=315   width=58    height=104   xoffset=-2    yoffset=-2    xadvance=54    page=0  chnl=15
char id=85   x=852   y=105   width=68    height=104   xoffset=-2    yoffset=-2    xadvance=64    page=0  chnl=15
char id=86   x=64    y=315   width=63    height=104   xoffset=-2    yoffset=-2    xadvance=59    page=0  chnl=15
char id=87   x=189   y=0     width=93    height=104   xoffset=-2    yoffset=-2    xadvance=89    page=0  chnl=15
char id=88   x=806   y=210   width=64    height=104   xoffset=-2    yoffset=-2    xadvance=60    page=0  chnl=15
char id=89   x=704   y=315   width=62    height=104   xoffset=-2    yoffset=-2    xadvance=58    page=0  chnl=15
char id=90   x=826   y=315   width=58    height=104   xoffset=-2    yoffset=-2    xadvance=54    page=0  chnl=15
char id=91   x=662   y=840   width=29    height=104   xoffset=-2    yoffset=-2    xadvance=25    page=0  chnl=15
char id=92   x=448   y=840   width=31    height=104   xoffset=-2    yoffset=-2    xadvance=27    page=0  chnl=15
char id=93   x=632   y=840   width=29    height=104   xoffset=-2    yoffset=-2    xadvance=25    page=0  chnl=15
char id=94   x=978   y=0     width=45    height=104   xoffset=-2    yoffset=-2    xadvance=41    page=0  chnl=15
char id=95   x=944   y=315   width=58    height=104   xoffset=-2    yoffset=-2    xadvance=54    page=0  chnl=15
char id=96   x=72    y=840   width=34    height=104   xoffset=-2    yoffset=-2    xadvance=30    page=0  chnl=15
char id=97   x=956   y=420   width=53    height=104   xoffset=-2    yoffset=-2    xadvance=49    page=0  chnl=15
char id=98   x=0     y=525   width=53    height=104   xoffset=-2    yoffset=-2    xadvance=49    page=0  chnl=15
char id=99   x=632   y=735   width=49    height=104   xoffset=-2    yoffset=-2    xadvance=45    page=0  chnl=15
char id=100  x=54    y=525   width=53    height=104   xoffset=-2    yoffset=-2    xadvance=49    page=0  chnl=15
char id=101  x=108   y=525   width=53    height=104   xoffset=-2    yoffset=-2    xadvance=49    page=0  chnl=15
char id=102  x=990   y=105   width=33    height=104   xoffset=-2    yoffset=-2    xadvance=29    page=0  chnl=15
char id=103  x=162   y=525   width=53    height=104   xoffset=-2    yoffset=-2    xadvance=49    page=0  chnl=15
char id=104  x=216   y=525   width=53    height=104   xoffset=-2    yoffset=-2    xadvance=49    page=0  chnl=15
char id=105  x=999   y=210   width=24    height=104   xoffset=-2    yoffset=-2    xadvance=20    page=0  chnl=15
char id=106  x=932   y=840   width=24    height=104   xoffset=-2    yoffset=-2    xadvance=20    page=0  chnl=15
char id=107  x=532   y=735   width=49    height=104   xoffset=-2    yoffset=-2    xadvance=45    page=0  chnl=15
char id=108  x=957   y=840   width=24    height=104   xoffset=-2    yoffset=-2    xadvance=20    page=0  chnl=15
char id=109  x=451   y=0     width=78    height=104   xoffset=-2    yoffset=-2    xadvance=74    page=0  chnl=15
char id=110  x=270   y=525   width=53    height=104   xoffset=-2    yoffset=-2    xadvance=49    page=0  chnl=15
char id=111  x=324   y=525   width=53    height=104   xoffset=-2    yoffset=-2    xadvance=49    page=0  chnl=15
char id=112  x=378   y=525   width=53    height=104   xoffset=-2    yoffset=-2    xadvance=49    page=0  chnl=15
char id=113  x=432   y=525   width=53    height=104   xoffset=-2    yoffset=-2    xadvance=49    page=0  chnl=15
char id=114  x=959   y=735   width=36    height=104   xoffset=-2    yoffset=-2    xadvance=32    page=0  chnl=15
char id=115  x=482   y=735   width=49    height=104   xoffset=-2    yoffset=-2    xadvance=45    page=0  chnl=15
char id=116  x=602   y=840   width=29    height=104   xoffset=-2    yoffset=-2    xadvance=25    page=0  chnl=15
char id=117  x=540   y=525   width=53    height=104   xoffset=-2    yoffset=-2    xadvance=49    page=0  chnl=15
char id=118  x=972   y=525   width=49    height=104   xoffset=-2    yoffset=-2    xadvance=45    page=0  chnl=15
char id=119  x=276   y=210   width=67    height=104   xoffset=-2    yoffset=-2    xadvance=63    page=0  chnl=15
char id=120  x=732   y=735   width=49    height=104   xoffset=-2    yoffset=-2    xadvance=45    page=0  chnl=15
char id=121  x=782   y=735   width=47    height=104   xoffset=-2    yoffset=-2    xadvance=43    page=0  chnl=15
char id=122  x=830   y=735   width=47    height=104   xoffset=-2    yoffset=-2    xadvance=43    page=0  chnl=15
char id=123  x=247   y=840   width=34    height=104   xoffset=-2    yoffset=-2    xadvance=30    page=0  chnl=15
char id=124  x=996   y=735   width=27    height=104   xoffset=-2    yoffset=-2    xadvance=23    page=0  chnl=15
char id=125  x=282   y=840   width=34    height=104   xoffset=-2    yoffset=-2    xadvance=30    page=0  chnl=15
char id=126  x=518   y=420   width=56    height=104   xoffset=-2    yoffset=-2    xadvance=52    page=0  chnl=15
char id=171  x=594   y=525   width=53    height=104   xoffset=-2    yoffset=-2    xadvance=49    page=0  chnl=15
char id=172  x=290   y=420   width=56    height=104   xoffset=-2    yoffset=-2    xadvance=52    page=0  chnl=15
char id=173  x=37    y=840   width=34    height=104   xoffset=-2    yoffset=-2    xadvance=30    page=0  chnl=15
char id=174  x=296   y=105   width=72    height=104   xoffset=-2    yoffset=-2    xadvance=68    page=0  chnl=15
char id=175  x=118   y=420   width=57    height=104   xoffset=-2    yoffset=-2    xadvance=53    page=0  chnl=15
char id=176  x=878   y=735   width=40    height=104   xoffset=-2    yoffset=-2    xadvance=36    page=0  chnl=15
char id=177  x=648   y=525   width=53    height=104   xoffset=-2    yoffset=-2    xadvance=49    page=0  chnl=15
char id=180  x=107   y=840   width=34    height=104   xoffset=-2    yoffset=-2    xadvance=30    page=0  chnl=15
char id=181  x=575   y=420   width=55    height=104   xoffset=-2    yoffset=-2    xadvance=51    page=0  chnl=15
char id=187  x=702   y=525   width=53    height=104   xoffset=-2    yoffset=-2    xadvance=49    page=0  chnl=15
char id=192  x=542   y=210   width=65    height=104   xoffset=-2    yoffset=-2    xadvance=61    page=0  chnl=15
char id=193  x=608   y=210   width=65    height=104   xoffset=-2    yoffset=-2    xadvance=61    page=0  chnl=15
char id=194  x=740   y=210   width=65    height=104   xoffset=-2    yoffset=-2    xadvance=61    page=0  chnl=15
char id=195  x=476   y=210   width=65    height=104   xoffset=-2    yoffset=-2    xadvance=61    page=0  chnl=15
char id=196  x=344   y=210   width=65    height=104   xoffset=-2    yoffset=-2    xadvance=61    page=0  chnl=15
char id=197  x=410   y=210   width=65    height=104   xoffset=-2    yoffset=-2    xadvance=61    page=0  chnl=15
char id=198  x=95    y=0     width=93    height=104   xoffset=-2    yoffset=-2    xadvance=89    page=0  chnl=15
char id=199  x=0     y=210   width=68    height=104   xoffset=-2    yoffset=-2    xadvance=64    page=0  chnl=15
char id=200  x=448   y=315   width=63    height=104   xoffset=-2    yoffset=-2    xadvance=59    page=0  chnl=15
char id=201  x=384   y=315   width=63    height=104   xoffset=-2    yoffset=-2    xadvance=59    page=0  chnl=15
char id=202  x=192   y=315   width=63    height=104   xoffset=-2    yoffset=-2    xadvance=59    page=0  chnl=15
char id=203  x=128   y=315   width=63    height=104   xoffset=-2    yoffset=-2    xadvance=59    page=0  chnl=15
char id=204  x=812   y=840   width=29    height=104   xoffset=-2    yoffset=-2    xadvance=25    page=0  chnl=15
char id=205  x=872   y=840   width=29    height=104   xoffset=-2    yoffset=-2    xadvance=25    page=0  chnl=15
char id=206  x=350   y=840   width=32    height=104   xoffset=-2    yoffset=-2    xadvance=28    page=0  chnl=15
char id=207  x=480   y=840   width=30    height=104   xoffset=-2    yoffset=-2    xadvance=26    page=0  chnl=15
char id=208  x=645   y=105   width=68    height=104   xoffset=-2    yoffset=-2    xadvance=64    page=0  chnl=15
char id=209  x=921   y=105   width=68    height=104   xoffset=-2    yoffset=-2    xadvance=64    page=0  chnl=15
char id=210  x=756   y=0     width=73    height=104   xoffset=-2    yoffset=-2    xadvance=69    page=0  chnl=15
char id=211  x=608   y=0     width=73    height=104   xoffset=-2    yoffset=-2    xadvance=69    page=0  chnl=15
char id=212  x=148   y=105   width=73    height=104   xoffset=-2    yoffset=-2    xadvance=69    page=0  chnl=15
char id=213  x=74    y=105   width=73    height=104   xoffset=-2    yoffset=-2    xadvance=69    page=0  chnl=15
char id=214  x=904   y=0     width=73    height=104   xoffset=-2    yoffset=-2    xadvance=69    page=0  chnl=15
char id=215  x=461   y=420   width=56    height=104   xoffset=-2    yoffset=-2    xadvance=52    page=0  chnl=15
char id=216  x=682   y=0     width=73    height=104   xoffset=-2    yoffset=-2    xadvance=69    page=0  chnl=15
char id=217  x=369   y=105   width=68    height=104   xoffset=-2    yoffset=-2    xadvance=64    page=0  chnl=15
char id=218  x=69    y=210   width=68    height=104   xoffset=-2    yoffset=-2    xadvance=64    page=0  chnl=15
char id=219  x=138   y=210   width=68    height=104   xoffset=-2    yoffset=-2    xadvance=64    page=0  chnl=15
char id=220  x=207   y=210   width=68    height=104   xoffset=-2    yoffset=-2    xadvance=64    page=0  chnl=15
char id=221  x=512   y=315   width=63    height=104   xoffset=-2    yoffset=-2    xadvance=59    page=0  chnl=15
char id=222  x=576   y=315   width=63    height=104   xoffset=-2    yoffset=-2    xadvance=59    page=0  chnl=15
char id=223  x=0     y=420   width=58    height=104   xoffset=-2    yoffset=-2    xadvance=54    page=0  chnl=15
char id=224  x=108   y=630   width=53    height=104   xoffset=-2    yoffset=-2    xadvance=49    page=0  chnl=15
char id=225  x=162   y=630   width=53    height=104   xoffset=-2    yoffset=-2    xadvance=49    page=0  chnl=15
char id=226  x=216   y=630   width=53    height=104   xoffset=-2    yoffset=-2    xadvance=49    page=0  chnl=15
char id=227  x=270   y=630   width=53    height=104   xoffset=-2    yoffset=-2    xadvance=49    page=0  chnl=15
char id=228  x=324   y=630   width=53    height=104   xoffset=-2    yoffset=-2    xadvance=49    page=0  chnl=15
char id=229  x=378   y=630   width=53    height=104   xoffset=-2    yoffset=-2    xadvance=49    page=0  chnl=15
char id=230  x=283   y=0     width=83    height=104   xoffset=-2    yoffset=-2    xadvance=79    page=0  chnl=15
char id=231  x=972   y=630   width=49    height=104   xoffset=-2    yoffset=-2    xadvance=45    page=0  chnl=15
char id=232  x=486   y=630   width=53    height=104   xoffset=-2    yoffset=-2    xadvance=49    page=0  chnl=15
char id=233  x=540   y=630   width=53    height=104   xoffset=-2    yoffset=-2    xadvance=49    page=0  chnl=15
char id=234  x=486   y=525   width=53    height=104   xoffset=-2    yoffset=-2    xadvance=49    page=0  chnl=15
char id=235  x=594   y=630   width=53    height=104   xoffset=-2    yoffset=-2    xadvance=49    page=0  chnl=15
char id=236  x=572   y=840   width=29    height=104   xoffset=-2    yoffset=-2    xadvance=25    page=0  chnl=15
char id=237  x=722   y=840   width=29    height=104   xoffset=-2    yoffset=-2    xadvance=25    page=0  chnl=15
char id=238  x=317   y=840   width=32    height=104   xoffset=-2    yoffset=-2    xadvance=28    page=0  chnl=15
char id=239  x=511   y=840   width=30    height=104   xoffset=-2    yoffset=-2    xadvance=26    page=0  chnl=15
char id=240  x=648   y=630   width=53    height=104   xoffset=-2    yoffset=-2    xadvance=49    page=0  chnl=15
char id=241  x=702   y=630   width=53    height=104   xoffset=-2    yoffset=-2    xadvance=49    page=0  chnl=15
char id=242  x=756   y=630   width=53    height=104   xoffset=-2    yoffset=-2    xadvance=49    page=0  chnl=15
char id=243  x=810   y=630   width=53    height=104   xoffset=-2    yoffset=-2    xadvance=49    page=0  chnl=15
char id=244  x=864   y=630   width=53    height=104   xoffset=-2    yoffset=-2    xadvance=49    page=0  chnl=15
char id=245  x=918   y=630   width=53    height=104   xoffset=-2    yoffset=-2    xadvance=49    page=0  chnl=15
char id=246  x=0     y=735   width=53    height=104   xoffset=-2    yoffset=-2    xadvance=49    page=0  chnl=15
char id=247  x=54    y=735   width=53    height=104   xoffset=-2    yoffset=-2    xadvance=49    page=0  chnl=15
char id=248  x=59    y=420   width=58    height=104   xoffset=-2    yoffset=-2    xadvance=54    page=0  chnl=15
char id=249  x=162   y=735   width=53    height=104   xoffset=-2    yoffset=-2    xadvance=49    page=0  chnl=15
char id=250  x=216   y=735   width=53    height=104   xoffset=-2    yoffset=-2    xadvance=49    page=0  chnl=15
char id=251  x=270   y=735   width=53    height=104   xoffset=-2    yoffset=-2    xadvance=49    page=0  chnl=15
char id=252  x=324   y=735   width=53    height=104   xoffset=-2    yoffset=-2    xadvance=49    page=0  chnl=15
char id=253  x=432   y=735   width=49    height=104   xoffset=-2    yoffset=-2    xadvance=45    page=0  chnl=15
char id=254  x=378   y=735   width=53    height=104   xoffset=-2    yoffset=-2    xadvance=49    page=0  chnl=15
char id=255  x=582   y=735   width=49    height=104   xoffset=-2    yoffset=-2    xadvance=45    page=0  chnl=15
kernings count=92
kerning first=32  second=65  amount=-5  
kerning first=32  second=84  amount=-2  
kerning first=32  second=89  amount=-2  
kerning first=121 second=46  amount=-7  
kerning first=121 second=44  amount=-7  
kerning first=119 second=46  amount=-5  
kerning first=119 second=44  amount=-5  
kerning first=118 second=46  amount=-7  
kerning first=118 second=44  amount=-7  
kerning first=114 second=46  amount=-5  
kerning first=49  second=49  amount=-7  
kerning first=65  second=32  amount=-5  
kerning first=65  second=84  amount=-7  
kerning first=65  second=86  amount=-7  
kerning first=65  second=87  amount=-3  
kerning first=65  second=89  amount=-7  
kerning first=65  second=118 amount=-2  
kerning first=65  second=119 amount=-2  
kerning first=65  second=121 amount=-2  
kerning first=114 second=44  amount=-5  
kerning first=70  second=44  amount=-10 
kerning first=70  second=46  amount=-10 
kerning first=70  second=65  amount=-5  
kerning first=76  second=32  amount=-3  
kerning first=76  second=84  amount=-7  
kerning first=76  second=86  amount=-7  
kerning first=76  second=87  amount=-7  
kerning first=76  second=89  amount=-7  
kerning first=76  second=121 amount=-3  
kerning first=102 second=102 amount=-2  
kerning first=80  second=32  amount=-2  
kerning first=80  second=44  amount=-12 
kerning first=80  second=46  amount=-12 
kerning first=80  second=65  amount=-7  
kerning first=82  second=84  amount=-2  
kerning first=82  second=86  amount=-2  
kerning first=82  second=87  amount=-2  
kerning first=82  second=89  amount=-2  
kerning first=84  second=32  amount=-2  
kerning first=84  second=44  amount=-10 
kerning first=84  second=45  amount=-5  
kerning first=84  second=46  amount=-10 
kerning first=84  second=58  amount=-10 
kerning first=89  second=118 amount=-5  
kerning first=84  second=65  amount=-7  
kerning first=84  second=79  amount=-2  
kerning first=84  second=97  amount=-10 
kerning first=84  second=99  amount=-10 
kerning first=84  second=101 amount=-10 
kerning first=84  second=105 amount=-3  
kerning first=84  second=111 amount=-10 
kerning first=84  second=114 amount=-3  
kerning first=84  second=115 amount=-10 
kerning first=84  second=117 amount=-3  
kerning first=84  second=119 amount=-5  
kerning first=84  second=121 amount=-5  
kerning first=86  second=44  amount=-8  
kerning first=86  second=45  amount=-5  
kerning first=86  second=46  amount=-8  
kerning first=86  second=58  amount=-3  
kerning first=89  second=117 amount=-5  
kerning first=86  second=65  amount=-7  
kerning first=86  second=97  amount=-7  
kerning first=86  second=101 amount=-5  
kerning first=86  second=105 amount=-2  
kerning first=86  second=111 amount=-5  
kerning first=86  second=114 amount=-3  
kerning first=86  second=117 amount=-3  
kerning first=86  second=121 amount=-3  
kerning first=87  second=44  amount=-5  
kerning first=87  second=45  amount=-2  
kerning first=87  second=46  amount=-5  
kerning first=87  second=58  amount=-2  
kerning first=89  second=113 amount=-8  
kerning first=87  second=65  amount=-3  
kerning first=87  second=97  amount=-3  
kerning first=87  second=101 amount=-2  
kerning first=89  second=112 amount=-7  
kerning first=87  second=111 amount=-2  
kerning first=87  second=114 amount=-2  
kerning first=87  second=117 amount=-2  
kerning first=87  second=121 amount=-1  
kerning first=89  second=32  amount=-2  
kerning first=89  second=44  amount=-12 
kerning first=89  second=45  amount=-8  
kerning first=89  second=46  amount=-12 
kerning first=89  second=58  amount=-5  
kerning first=89  second=111 amount=-8  
kerning first=89  second=65  amount=-7  
kerning first=89  second=97  amount=-7  
kerning first=89  second=101 amount=-8  
kerning first=89  second=105 amount=-3  
