^C:\USERS\SATRI\DOCUMENTS\OPENGLTUTORIAL\VS2017\TUTORIAL16_SHADOWMAPS_SIMPLE.DIR\DEBUG\CONTROLS.OBJ|C:\USERS\SATRI\DOCUMENTS\OPENGLTUTORIAL\VS2017\TUTORIAL16_SHADOWMAPS_SIMPLE.DIR\DEBUG\OBJLOADER.OBJ|C:\USERS\SATRI\DOCUMENTS\OPENGLTUTORIAL\VS2017\TUTORIAL16_SHADOWMAPS_SIMPLE.DIR\DEBUG\SHADER.OBJ|C:\USERS\SATRI\DOCUMENTS\OPENGLTUTORIAL\VS2017\TUTORIAL16_SHADOWMAPS_SIMPLE.DIR\DEBUG\TEXTURE.OBJ|C:\USERS\SATRI\DOCUMENTS\OPENGLTUTORIAL\VS2017\TUTORIAL16_SHADOWMAPS_SIMPLE.DIR\DEBUG\TUTORIAL16_SIMPLEVERSION.OBJ|C:\USERS\SATRI\DOCUMENTS\OPENGLTUTORIAL\VS2017\TUTORIAL16_SHADOWMAPS_SIMPLE.DIR\DEBUG\VBOINDEXER.OBJ
C:\USERS\SATRI\DOCUMENTS\OPENGLTUTORIAL\VS2017\DEBUG\TUTORIAL16_SHADOWMAPS_SIMPLE.ILK
C:\USERS\SATRI\DOCUMENTS\OPENGLTUTORIAL\VS2017\DEBUG\TUTORIAL16_SHADOWMAPS_SIMPLE.EXE
C:\USERS\SATRI\DOCUMENTS\OPENGLTUTORIAL\VS2017\DEBUG\TUTORIAL16_SHADOWMAPS_SIMPLE.PDB
